G04 #@! TF.GenerationSoftware,KiCad,Pcbnew,(5.1.10)-1*
G04 #@! TF.CreationDate,2021-08-01T21:28:50-04:00*
G04 #@! TF.ProjectId,mini,6d6f6465-6c6a-42d7-9373-6b2e6b696361,v0.02*
G04 #@! TF.SameCoordinates,Original*
G04 #@! TF.FileFunction,Legend,Top*
G04 #@! TF.FilePolarity,Positive*
%FSLAX46Y46*%
G04 Gerber Fmt 4.6, Leading zero omitted, Abs format (unit mm)*
G04 Created by KiCad (PCBNEW (5.1.10)-1) date 2021-08-01 21:28:50*
%MOMM*%
%LPD*%
G01*
G04 APERTURE LIST*
%ADD10C,0.300000*%
%ADD11C,0.250000*%
%ADD12C,0.150000*%
%ADD13C,0.120000*%
G04 APERTURE END LIST*
D10*
X88455714Y-56111428D02*
X88455714Y-55040000D01*
X88527142Y-54825714D01*
X88670000Y-54682857D01*
X88884285Y-54611428D01*
X89027142Y-54611428D01*
D11*
X136702380Y-66068571D02*
X136702380Y-65449523D01*
X137083333Y-65782857D01*
X137083333Y-65640000D01*
X137130952Y-65544761D01*
X137178571Y-65497142D01*
X137273809Y-65449523D01*
X137511904Y-65449523D01*
X137607142Y-65497142D01*
X137654761Y-65544761D01*
X137702380Y-65640000D01*
X137702380Y-65925714D01*
X137654761Y-66020952D01*
X137607142Y-66068571D01*
X137607142Y-65020952D02*
X137654761Y-64973333D01*
X137702380Y-65020952D01*
X137654761Y-65068571D01*
X137607142Y-65020952D01*
X137702380Y-65020952D01*
X136702380Y-64640000D02*
X136702380Y-64020952D01*
X137083333Y-64354285D01*
X137083333Y-64211428D01*
X137130952Y-64116190D01*
X137178571Y-64068571D01*
X137273809Y-64020952D01*
X137511904Y-64020952D01*
X137607142Y-64068571D01*
X137654761Y-64116190D01*
X137702380Y-64211428D01*
X137702380Y-64497142D01*
X137654761Y-64592380D01*
X137607142Y-64640000D01*
X137035714Y-63687619D02*
X137702380Y-63449523D01*
X137035714Y-63211428D01*
X142602380Y-64082857D02*
X142602380Y-64559047D01*
X143078571Y-64606666D01*
X143030952Y-64559047D01*
X142983333Y-64463809D01*
X142983333Y-64225714D01*
X143030952Y-64130476D01*
X143078571Y-64082857D01*
X143173809Y-64035238D01*
X143411904Y-64035238D01*
X143507142Y-64082857D01*
X143554761Y-64130476D01*
X143602380Y-64225714D01*
X143602380Y-64463809D01*
X143554761Y-64559047D01*
X143507142Y-64606666D01*
X142935714Y-63701904D02*
X143602380Y-63463809D01*
X142935714Y-63225714D01*
D12*
X190407023Y-73357142D02*
X190359404Y-73404761D01*
X190216547Y-73452380D01*
X190121309Y-73452380D01*
X189978452Y-73404761D01*
X189883214Y-73309523D01*
X189835595Y-73214285D01*
X189787976Y-73023809D01*
X189787976Y-72880952D01*
X189835595Y-72690476D01*
X189883214Y-72595238D01*
X189978452Y-72500000D01*
X190121309Y-72452380D01*
X190216547Y-72452380D01*
X190359404Y-72500000D01*
X190407023Y-72547619D01*
X191264166Y-72785714D02*
X191264166Y-73452380D01*
X190835595Y-72785714D02*
X190835595Y-73309523D01*
X190883214Y-73404761D01*
X190978452Y-73452380D01*
X191121309Y-73452380D01*
X191216547Y-73404761D01*
X191264166Y-73357142D01*
X191692738Y-73404761D02*
X191787976Y-73452380D01*
X191978452Y-73452380D01*
X192073690Y-73404761D01*
X192121309Y-73309523D01*
X192121309Y-73261904D01*
X192073690Y-73166666D01*
X191978452Y-73119047D01*
X191835595Y-73119047D01*
X191740357Y-73071428D01*
X191692738Y-72976190D01*
X191692738Y-72928571D01*
X191740357Y-72833333D01*
X191835595Y-72785714D01*
X191978452Y-72785714D01*
X192073690Y-72833333D01*
X192407023Y-72785714D02*
X192787976Y-72785714D01*
X192549880Y-72452380D02*
X192549880Y-73309523D01*
X192597500Y-73404761D01*
X192692738Y-73452380D01*
X192787976Y-73452380D01*
X193264166Y-73452380D02*
X193168928Y-73404761D01*
X193121309Y-73357142D01*
X193073690Y-73261904D01*
X193073690Y-72976190D01*
X193121309Y-72880952D01*
X193168928Y-72833333D01*
X193264166Y-72785714D01*
X193407023Y-72785714D01*
X193502261Y-72833333D01*
X193549880Y-72880952D01*
X193597500Y-72976190D01*
X193597500Y-73261904D01*
X193549880Y-73357142D01*
X193502261Y-73404761D01*
X193407023Y-73452380D01*
X193264166Y-73452380D01*
X194026071Y-73452380D02*
X194026071Y-72785714D01*
X194026071Y-72880952D02*
X194073690Y-72833333D01*
X194168928Y-72785714D01*
X194311785Y-72785714D01*
X194407023Y-72833333D01*
X194454642Y-72928571D01*
X194454642Y-73452380D01*
X194454642Y-72928571D02*
X194502261Y-72833333D01*
X194597500Y-72785714D01*
X194740357Y-72785714D01*
X194835595Y-72833333D01*
X194883214Y-72928571D01*
X194883214Y-73452380D01*
X196597500Y-73452380D02*
X196121309Y-73452380D01*
X196121309Y-72452380D01*
X196930833Y-72928571D02*
X197264166Y-72928571D01*
X197407023Y-73452380D02*
X196930833Y-73452380D01*
X196930833Y-72452380D01*
X197407023Y-72452380D01*
X197835595Y-73452380D02*
X197835595Y-72452380D01*
X198073690Y-72452380D01*
X198216547Y-72500000D01*
X198311785Y-72595238D01*
X198359404Y-72690476D01*
X198407023Y-72880952D01*
X198407023Y-73023809D01*
X198359404Y-73214285D01*
X198311785Y-73309523D01*
X198216547Y-73404761D01*
X198073690Y-73452380D01*
X197835595Y-73452380D01*
X78379523Y-54892380D02*
X77903333Y-54892380D01*
X77855714Y-55368571D01*
X77903333Y-55320952D01*
X77998571Y-55273333D01*
X78236666Y-55273333D01*
X78331904Y-55320952D01*
X78379523Y-55368571D01*
X78427142Y-55463809D01*
X78427142Y-55701904D01*
X78379523Y-55797142D01*
X78331904Y-55844761D01*
X78236666Y-55892380D01*
X77998571Y-55892380D01*
X77903333Y-55844761D01*
X77855714Y-55797142D01*
X78712857Y-54892380D02*
X79046190Y-55892380D01*
X79379523Y-54892380D01*
X195252556Y-70205027D02*
X195157318Y-70157407D01*
X195014461Y-70157407D01*
X194871603Y-70205027D01*
X194776365Y-70300265D01*
X194728746Y-70395503D01*
X194681127Y-70585979D01*
X194681127Y-70728836D01*
X194728746Y-70919312D01*
X194776365Y-71014550D01*
X194871603Y-71109788D01*
X195014461Y-71157407D01*
X195109699Y-71157407D01*
X195252556Y-71109788D01*
X195300175Y-71062169D01*
X195300175Y-70728836D01*
X195109699Y-70728836D01*
X195728746Y-71157407D02*
X195728746Y-70157407D01*
X196300175Y-71157407D01*
X196300175Y-70157407D01*
X196776365Y-71157407D02*
X196776365Y-70157407D01*
X197014461Y-70157407D01*
X197157318Y-70205027D01*
X197252556Y-70300265D01*
X197300175Y-70395503D01*
X197347794Y-70585979D01*
X197347794Y-70728836D01*
X197300175Y-70919312D01*
X197252556Y-71014550D01*
X197157318Y-71109788D01*
X197014461Y-71157407D01*
X196776365Y-71157407D01*
X194438270Y-67607407D02*
X195057318Y-67607407D01*
X194723984Y-67988360D01*
X194866841Y-67988360D01*
X194962080Y-68035979D01*
X195009699Y-68083598D01*
X195057318Y-68178836D01*
X195057318Y-68416931D01*
X195009699Y-68512169D01*
X194962080Y-68559788D01*
X194866841Y-68607407D01*
X194581127Y-68607407D01*
X194485889Y-68559788D01*
X194438270Y-68512169D01*
X195485889Y-68512169D02*
X195533508Y-68559788D01*
X195485889Y-68607407D01*
X195438270Y-68559788D01*
X195485889Y-68512169D01*
X195485889Y-68607407D01*
X195866841Y-67607407D02*
X196485889Y-67607407D01*
X196152556Y-67988360D01*
X196295413Y-67988360D01*
X196390651Y-68035979D01*
X196438270Y-68083598D01*
X196485889Y-68178836D01*
X196485889Y-68416931D01*
X196438270Y-68512169D01*
X196390651Y-68559788D01*
X196295413Y-68607407D01*
X196009699Y-68607407D01*
X195914461Y-68559788D01*
X195866841Y-68512169D01*
X196771603Y-67607407D02*
X197104937Y-68607407D01*
X197438270Y-67607407D01*
X194745413Y-65583598D02*
X194888270Y-65631217D01*
X194935889Y-65678836D01*
X194983508Y-65774074D01*
X194983508Y-65916931D01*
X194935889Y-66012169D01*
X194888270Y-66059788D01*
X194793032Y-66107407D01*
X194412080Y-66107407D01*
X194412080Y-65107407D01*
X194745413Y-65107407D01*
X194840651Y-65155027D01*
X194888270Y-65202646D01*
X194935889Y-65297884D01*
X194935889Y-65393122D01*
X194888270Y-65488360D01*
X194840651Y-65535979D01*
X194745413Y-65583598D01*
X194412080Y-65583598D01*
X195316841Y-65107407D02*
X195983508Y-65107407D01*
X195554937Y-66107407D01*
X197602556Y-66107407D02*
X197126365Y-66107407D01*
X197126365Y-65107407D01*
X197935889Y-65583598D02*
X198269222Y-65583598D01*
X198412080Y-66107407D02*
X197935889Y-66107407D01*
X197935889Y-65107407D01*
X198412080Y-65107407D01*
X198840651Y-66107407D02*
X198840651Y-65107407D01*
X199078746Y-65107407D01*
X199221603Y-65155027D01*
X199316841Y-65250265D01*
X199364461Y-65345503D01*
X199412080Y-65535979D01*
X199412080Y-65678836D01*
X199364461Y-65869312D01*
X199316841Y-65964550D01*
X199221603Y-66059788D01*
X199078746Y-66107407D01*
X198840651Y-66107407D01*
X199793032Y-65202646D02*
X199840651Y-65155027D01*
X199935889Y-65107407D01*
X200173984Y-65107407D01*
X200269222Y-65155027D01*
X200316841Y-65202646D01*
X200364461Y-65297884D01*
X200364461Y-65393122D01*
X200316841Y-65535979D01*
X199745413Y-66107407D01*
X200364461Y-66107407D01*
X194795413Y-63033598D02*
X194938270Y-63081217D01*
X194985889Y-63128836D01*
X195033508Y-63224074D01*
X195033508Y-63366931D01*
X194985889Y-63462169D01*
X194938270Y-63509788D01*
X194843032Y-63557407D01*
X194462080Y-63557407D01*
X194462080Y-62557407D01*
X194795413Y-62557407D01*
X194890651Y-62605027D01*
X194938270Y-62652646D01*
X194985889Y-62747884D01*
X194985889Y-62843122D01*
X194938270Y-62938360D01*
X194890651Y-62985979D01*
X194795413Y-63033598D01*
X194462080Y-63033598D01*
X195604937Y-62985979D02*
X195509699Y-62938360D01*
X195462080Y-62890741D01*
X195414461Y-62795503D01*
X195414461Y-62747884D01*
X195462080Y-62652646D01*
X195509699Y-62605027D01*
X195604937Y-62557407D01*
X195795413Y-62557407D01*
X195890651Y-62605027D01*
X195938270Y-62652646D01*
X195985889Y-62747884D01*
X195985889Y-62795503D01*
X195938270Y-62890741D01*
X195890651Y-62938360D01*
X195795413Y-62985979D01*
X195604937Y-62985979D01*
X195509699Y-63033598D01*
X195462080Y-63081217D01*
X195414461Y-63176455D01*
X195414461Y-63366931D01*
X195462080Y-63462169D01*
X195509699Y-63509788D01*
X195604937Y-63557407D01*
X195795413Y-63557407D01*
X195890651Y-63509788D01*
X195938270Y-63462169D01*
X195985889Y-63366931D01*
X195985889Y-63176455D01*
X195938270Y-63081217D01*
X195890651Y-63033598D01*
X195795413Y-62985979D01*
X197652556Y-63557407D02*
X197176365Y-63557407D01*
X197176365Y-62557407D01*
X197985889Y-63033598D02*
X198319222Y-63033598D01*
X198462080Y-63557407D02*
X197985889Y-63557407D01*
X197985889Y-62557407D01*
X198462080Y-62557407D01*
X198890651Y-63557407D02*
X198890651Y-62557407D01*
X199128746Y-62557407D01*
X199271603Y-62605027D01*
X199366841Y-62700265D01*
X199414461Y-62795503D01*
X199462080Y-62985979D01*
X199462080Y-63128836D01*
X199414461Y-63319312D01*
X199366841Y-63414550D01*
X199271603Y-63509788D01*
X199128746Y-63557407D01*
X198890651Y-63557407D01*
X200414461Y-63557407D02*
X199843032Y-63557407D01*
X200128746Y-63557407D02*
X200128746Y-62557407D01*
X200033508Y-62700265D01*
X199938270Y-62795503D01*
X199843032Y-62843122D01*
X194795413Y-60483598D02*
X194938270Y-60531217D01*
X194985889Y-60578836D01*
X195033508Y-60674074D01*
X195033508Y-60816931D01*
X194985889Y-60912169D01*
X194938270Y-60959788D01*
X194843032Y-61007407D01*
X194462080Y-61007407D01*
X194462080Y-60007407D01*
X194795413Y-60007407D01*
X194890651Y-60055027D01*
X194938270Y-60102646D01*
X194985889Y-60197884D01*
X194985889Y-60293122D01*
X194938270Y-60388360D01*
X194890651Y-60435979D01*
X194795413Y-60483598D01*
X194462080Y-60483598D01*
X195509699Y-61007407D02*
X195700175Y-61007407D01*
X195795413Y-60959788D01*
X195843032Y-60912169D01*
X195938270Y-60769312D01*
X195985889Y-60578836D01*
X195985889Y-60197884D01*
X195938270Y-60102646D01*
X195890651Y-60055027D01*
X195795413Y-60007407D01*
X195604937Y-60007407D01*
X195509699Y-60055027D01*
X195462080Y-60102646D01*
X195414461Y-60197884D01*
X195414461Y-60435979D01*
X195462080Y-60531217D01*
X195509699Y-60578836D01*
X195604937Y-60626455D01*
X195795413Y-60626455D01*
X195890651Y-60578836D01*
X195938270Y-60531217D01*
X195985889Y-60435979D01*
X197652556Y-61007407D02*
X197176365Y-61007407D01*
X197176365Y-60007407D01*
X197985889Y-60483598D02*
X198319222Y-60483598D01*
X198462080Y-61007407D02*
X197985889Y-61007407D01*
X197985889Y-60007407D01*
X198462080Y-60007407D01*
X198890651Y-61007407D02*
X198890651Y-60007407D01*
X199128746Y-60007407D01*
X199271603Y-60055027D01*
X199366841Y-60150265D01*
X199414461Y-60245503D01*
X199462080Y-60435979D01*
X199462080Y-60578836D01*
X199414461Y-60769312D01*
X199366841Y-60864550D01*
X199271603Y-60959788D01*
X199128746Y-61007407D01*
X198890651Y-61007407D01*
X200081127Y-60007407D02*
X200176365Y-60007407D01*
X200271603Y-60055027D01*
X200319222Y-60102646D01*
X200366841Y-60197884D01*
X200414461Y-60388360D01*
X200414461Y-60626455D01*
X200366841Y-60816931D01*
X200319222Y-60912169D01*
X200271603Y-60959788D01*
X200176365Y-61007407D01*
X200081127Y-61007407D01*
X199985889Y-60959788D01*
X199938270Y-60912169D01*
X199890651Y-60816931D01*
X199843032Y-60626455D01*
X199843032Y-60388360D01*
X199890651Y-60197884D01*
X199938270Y-60102646D01*
X199985889Y-60055027D01*
X200081127Y-60007407D01*
D10*
X203998571Y-70968571D02*
X203284285Y-70968571D01*
X203284285Y-69468571D01*
X204498571Y-70182857D02*
X204998571Y-70182857D01*
X205212857Y-70968571D02*
X204498571Y-70968571D01*
X204498571Y-69468571D01*
X205212857Y-69468571D01*
X205855714Y-70968571D02*
X205855714Y-69468571D01*
X206212857Y-69468571D01*
X206427142Y-69540000D01*
X206570000Y-69682857D01*
X206641428Y-69825714D01*
X206712857Y-70111428D01*
X206712857Y-70325714D01*
X206641428Y-70611428D01*
X206570000Y-70754285D01*
X206427142Y-70897142D01*
X206212857Y-70968571D01*
X205855714Y-70968571D01*
X207284285Y-70897142D02*
X207427142Y-70968571D01*
X207712857Y-70968571D01*
X207855714Y-70897142D01*
X207927142Y-70754285D01*
X207927142Y-70682857D01*
X207855714Y-70540000D01*
X207712857Y-70468571D01*
X207498571Y-70468571D01*
X207355714Y-70397142D01*
X207284285Y-70254285D01*
X207284285Y-70182857D01*
X207355714Y-70040000D01*
X207498571Y-69968571D01*
X207712857Y-69968571D01*
X207855714Y-70040000D01*
X110629285Y-55525714D02*
X110557857Y-55597142D01*
X110343571Y-55668571D01*
X110200714Y-55668571D01*
X109986428Y-55597142D01*
X109843571Y-55454285D01*
X109772142Y-55311428D01*
X109700714Y-55025714D01*
X109700714Y-54811428D01*
X109772142Y-54525714D01*
X109843571Y-54382857D01*
X109986428Y-54240000D01*
X110200714Y-54168571D01*
X110343571Y-54168571D01*
X110557857Y-54240000D01*
X110629285Y-54311428D01*
X111486428Y-55668571D02*
X111343571Y-55597142D01*
X111272142Y-55525714D01*
X111200714Y-55382857D01*
X111200714Y-54954285D01*
X111272142Y-54811428D01*
X111343571Y-54740000D01*
X111486428Y-54668571D01*
X111700714Y-54668571D01*
X111843571Y-54740000D01*
X111915000Y-54811428D01*
X111986428Y-54954285D01*
X111986428Y-55382857D01*
X111915000Y-55525714D01*
X111843571Y-55597142D01*
X111700714Y-55668571D01*
X111486428Y-55668571D01*
X112843571Y-55668571D02*
X112700714Y-55597142D01*
X112629285Y-55454285D01*
X112629285Y-54168571D01*
X114057857Y-54668571D02*
X114057857Y-55668571D01*
X113415000Y-54668571D02*
X113415000Y-55454285D01*
X113486428Y-55597142D01*
X113629285Y-55668571D01*
X113843571Y-55668571D01*
X113986428Y-55597142D01*
X114057857Y-55525714D01*
X114772142Y-55668571D02*
X114772142Y-54668571D01*
X114772142Y-54811428D02*
X114843571Y-54740000D01*
X114986428Y-54668571D01*
X115200714Y-54668571D01*
X115343571Y-54740000D01*
X115415000Y-54882857D01*
X115415000Y-55668571D01*
X115415000Y-54882857D02*
X115486428Y-54740000D01*
X115629285Y-54668571D01*
X115843571Y-54668571D01*
X115986428Y-54740000D01*
X116057857Y-54882857D01*
X116057857Y-55668571D01*
X116772142Y-54668571D02*
X116772142Y-55668571D01*
X116772142Y-54811428D02*
X116843571Y-54740000D01*
X116986428Y-54668571D01*
X117200714Y-54668571D01*
X117343571Y-54740000D01*
X117415000Y-54882857D01*
X117415000Y-55668571D01*
X118057857Y-55597142D02*
X118200714Y-55668571D01*
X118486428Y-55668571D01*
X118629285Y-55597142D01*
X118700714Y-55454285D01*
X118700714Y-55382857D01*
X118629285Y-55240000D01*
X118486428Y-55168571D01*
X118272142Y-55168571D01*
X118129285Y-55097142D01*
X118057857Y-54954285D01*
X118057857Y-54882857D01*
X118129285Y-54740000D01*
X118272142Y-54668571D01*
X118486428Y-54668571D01*
X118629285Y-54740000D01*
X157619285Y-76878571D02*
X157119285Y-76164285D01*
X156762142Y-76878571D02*
X156762142Y-75378571D01*
X157333571Y-75378571D01*
X157476428Y-75450000D01*
X157547857Y-75521428D01*
X157619285Y-75664285D01*
X157619285Y-75878571D01*
X157547857Y-76021428D01*
X157476428Y-76092857D01*
X157333571Y-76164285D01*
X156762142Y-76164285D01*
X158476428Y-76878571D02*
X158333571Y-76807142D01*
X158262142Y-76735714D01*
X158190714Y-76592857D01*
X158190714Y-76164285D01*
X158262142Y-76021428D01*
X158333571Y-75950000D01*
X158476428Y-75878571D01*
X158690714Y-75878571D01*
X158833571Y-75950000D01*
X158905000Y-76021428D01*
X158976428Y-76164285D01*
X158976428Y-76592857D01*
X158905000Y-76735714D01*
X158833571Y-76807142D01*
X158690714Y-76878571D01*
X158476428Y-76878571D01*
X159476428Y-75878571D02*
X159762142Y-76878571D01*
X160047857Y-76164285D01*
X160333571Y-76878571D01*
X160619285Y-75878571D01*
X161119285Y-76807142D02*
X161262142Y-76878571D01*
X161547857Y-76878571D01*
X161690714Y-76807142D01*
X161762142Y-76664285D01*
X161762142Y-76592857D01*
X161690714Y-76450000D01*
X161547857Y-76378571D01*
X161333571Y-76378571D01*
X161190714Y-76307142D01*
X161119285Y-76164285D01*
X161119285Y-76092857D01*
X161190714Y-75950000D01*
X161333571Y-75878571D01*
X161547857Y-75878571D01*
X161690714Y-75950000D01*
D12*
X90874761Y-52304285D02*
X90636666Y-51637619D01*
X90398571Y-52304285D01*
X89827142Y-52637619D02*
X89731904Y-52637619D01*
X89636666Y-52590000D01*
X89589047Y-52542380D01*
X89541428Y-52447142D01*
X89493809Y-52256666D01*
X89493809Y-52018571D01*
X89541428Y-51828095D01*
X89589047Y-51732857D01*
X89636666Y-51685238D01*
X89731904Y-51637619D01*
X89827142Y-51637619D01*
X89922380Y-51685238D01*
X89970000Y-51732857D01*
X90017619Y-51828095D01*
X90065238Y-52018571D01*
X90065238Y-52256666D01*
X90017619Y-52447142D01*
X89970000Y-52542380D01*
X89922380Y-52590000D01*
X89827142Y-52637619D01*
X89065238Y-51732857D02*
X89017619Y-51685238D01*
X89065238Y-51637619D01*
X89112857Y-51685238D01*
X89065238Y-51732857D01*
X89065238Y-51637619D01*
X88398571Y-52637619D02*
X88303333Y-52637619D01*
X88208095Y-52590000D01*
X88160476Y-52542380D01*
X88112857Y-52447142D01*
X88065238Y-52256666D01*
X88065238Y-52018571D01*
X88112857Y-51828095D01*
X88160476Y-51732857D01*
X88208095Y-51685238D01*
X88303333Y-51637619D01*
X88398571Y-51637619D01*
X88493809Y-51685238D01*
X88541428Y-51732857D01*
X88589047Y-51828095D01*
X88636666Y-52018571D01*
X88636666Y-52256666D01*
X88589047Y-52447142D01*
X88541428Y-52542380D01*
X88493809Y-52590000D01*
X88398571Y-52637619D01*
X87684285Y-52542380D02*
X87636666Y-52590000D01*
X87541428Y-52637619D01*
X87303333Y-52637619D01*
X87208095Y-52590000D01*
X87160476Y-52542380D01*
X87112857Y-52447142D01*
X87112857Y-52351904D01*
X87160476Y-52209047D01*
X87731904Y-51637619D01*
X87112857Y-51637619D01*
D13*
X158750000Y-80240000D02*
X158750000Y-81240000D01*
X157250000Y-80240000D02*
X158750000Y-80240000D01*
X196850000Y-80240000D02*
X196850000Y-81240000D01*
X198350000Y-80240000D02*
X196850000Y-80240000D01*
X157250000Y-80240000D02*
X157250000Y-77240000D01*
X196850000Y-81240000D02*
X158750000Y-81240000D01*
X198350000Y-77240000D02*
X198350000Y-80240000D01*
X157250000Y-77240000D02*
X198350000Y-77240000D01*
X109220000Y-52300000D02*
X109220000Y-53300000D01*
X107720000Y-52300000D02*
X109220000Y-52300000D01*
X147320000Y-52300000D02*
X147320000Y-53300000D01*
X148820000Y-52300000D02*
X147320000Y-52300000D01*
X107720000Y-52300000D02*
X107720000Y-49300000D01*
X147320000Y-53300000D02*
X109220000Y-53300000D01*
X148820000Y-49300000D02*
X148820000Y-52300000D01*
X107720000Y-49300000D02*
X148820000Y-49300000D01*
X214800000Y-59570000D02*
X214800000Y-63830000D01*
X214800000Y-63830000D02*
X227120000Y-63830000D01*
X227120000Y-63830000D02*
X227120000Y-59570000D01*
X214800000Y-55470000D02*
X214800000Y-47110000D01*
X214800000Y-47110000D02*
X227120000Y-47110000D01*
X227120000Y-47110000D02*
X227120000Y-55470000D01*
X219710000Y-64050000D02*
X219210000Y-64550000D01*
X219210000Y-64550000D02*
X220210000Y-64550000D01*
X220210000Y-64550000D02*
X219710000Y-64050000D01*
X154620000Y-60960000D02*
G75*
G03*
X154620000Y-60960000I-950000J0D01*
G01*
X152565000Y-67257064D02*
X152565000Y-66802936D01*
X154035000Y-67257064D02*
X154035000Y-66802936D01*
X149615000Y-67257064D02*
X149615000Y-66802936D01*
X151085000Y-67257064D02*
X151085000Y-66802936D01*
X152565000Y-71667064D02*
X152565000Y-71212936D01*
X154035000Y-71667064D02*
X154035000Y-71212936D01*
X149615000Y-71667064D02*
X149615000Y-71212936D01*
X151085000Y-71667064D02*
X151085000Y-71212936D01*
X141680000Y-59970000D02*
X141680000Y-57310000D01*
X139080000Y-59970000D02*
X141680000Y-59970000D01*
X139080000Y-57310000D02*
X141680000Y-57310000D01*
X139080000Y-59970000D02*
X139080000Y-57310000D01*
X137810000Y-59970000D02*
X136480000Y-59970000D01*
X136480000Y-59970000D02*
X136480000Y-58640000D01*
X167967064Y-65615000D02*
X167512936Y-65615000D01*
X167967064Y-64145000D02*
X167512936Y-64145000D01*
X167412936Y-61845000D02*
X167867064Y-61845000D01*
X167412936Y-63315000D02*
X167867064Y-63315000D01*
X219696263Y-79335000D02*
X221143737Y-79335000D01*
X219696263Y-82045000D02*
X221143737Y-82045000D01*
X144225000Y-62725000D02*
X144225000Y-60065000D01*
X139085000Y-62725000D02*
X144225000Y-62725000D01*
X139085000Y-60065000D02*
X144225000Y-60065000D01*
X139085000Y-62725000D02*
X139085000Y-60065000D01*
X137815000Y-62725000D02*
X136485000Y-62725000D01*
X136485000Y-62725000D02*
X136485000Y-61395000D01*
X144360000Y-77370000D02*
X144360000Y-74710000D01*
X139220000Y-77370000D02*
X144360000Y-77370000D01*
X139220000Y-74710000D02*
X144360000Y-74710000D01*
X139220000Y-77370000D02*
X139220000Y-74710000D01*
X137950000Y-77370000D02*
X136620000Y-77370000D01*
X136620000Y-77370000D02*
X136620000Y-76040000D01*
X144360000Y-73970000D02*
X144360000Y-71310000D01*
X139220000Y-73970000D02*
X144360000Y-73970000D01*
X139220000Y-71310000D02*
X144360000Y-71310000D01*
X139220000Y-73970000D02*
X139220000Y-71310000D01*
X137950000Y-73970000D02*
X136620000Y-73970000D01*
X136620000Y-73970000D02*
X136620000Y-72640000D01*
X144360000Y-70470000D02*
X144360000Y-67810000D01*
X139220000Y-70470000D02*
X144360000Y-70470000D01*
X139220000Y-67810000D02*
X144360000Y-67810000D01*
X139220000Y-70470000D02*
X139220000Y-67810000D01*
X137950000Y-70470000D02*
X136620000Y-70470000D01*
X136620000Y-70470000D02*
X136620000Y-69140000D01*
X237710000Y-66260000D02*
X237710000Y-64560000D01*
X237710000Y-60740000D02*
X237710000Y-62440000D01*
X233254437Y-60740000D02*
X237710000Y-60740000D01*
X233254437Y-66260000D02*
X237710000Y-66260000D01*
X232190000Y-65195563D02*
X232190000Y-64560000D01*
X232190000Y-61804437D02*
X232190000Y-62440000D01*
X232190000Y-61804437D02*
X233254437Y-60740000D01*
X232190000Y-65195563D02*
X233254437Y-66260000D01*
X237550000Y-69850000D02*
G75*
G03*
X237550000Y-69850000I-2620000J0D01*
G01*
X234930000Y-67270000D02*
X234930000Y-72430000D01*
X234970000Y-67270000D02*
X234970000Y-72430000D01*
X235010000Y-67271000D02*
X235010000Y-72429000D01*
X235050000Y-67272000D02*
X235050000Y-72428000D01*
X235090000Y-67274000D02*
X235090000Y-72426000D01*
X235130000Y-67277000D02*
X235130000Y-72423000D01*
X235170000Y-67281000D02*
X235170000Y-68810000D01*
X235170000Y-70890000D02*
X235170000Y-72419000D01*
X235210000Y-67285000D02*
X235210000Y-68810000D01*
X235210000Y-70890000D02*
X235210000Y-72415000D01*
X235250000Y-67289000D02*
X235250000Y-68810000D01*
X235250000Y-70890000D02*
X235250000Y-72411000D01*
X235290000Y-67294000D02*
X235290000Y-68810000D01*
X235290000Y-70890000D02*
X235290000Y-72406000D01*
X235330000Y-67300000D02*
X235330000Y-68810000D01*
X235330000Y-70890000D02*
X235330000Y-72400000D01*
X235370000Y-67307000D02*
X235370000Y-68810000D01*
X235370000Y-70890000D02*
X235370000Y-72393000D01*
X235410000Y-67314000D02*
X235410000Y-68810000D01*
X235410000Y-70890000D02*
X235410000Y-72386000D01*
X235450000Y-67322000D02*
X235450000Y-68810000D01*
X235450000Y-70890000D02*
X235450000Y-72378000D01*
X235490000Y-67330000D02*
X235490000Y-68810000D01*
X235490000Y-70890000D02*
X235490000Y-72370000D01*
X235530000Y-67339000D02*
X235530000Y-68810000D01*
X235530000Y-70890000D02*
X235530000Y-72361000D01*
X235570000Y-67349000D02*
X235570000Y-68810000D01*
X235570000Y-70890000D02*
X235570000Y-72351000D01*
X235610000Y-67359000D02*
X235610000Y-68810000D01*
X235610000Y-70890000D02*
X235610000Y-72341000D01*
X235651000Y-67370000D02*
X235651000Y-68810000D01*
X235651000Y-70890000D02*
X235651000Y-72330000D01*
X235691000Y-67382000D02*
X235691000Y-68810000D01*
X235691000Y-70890000D02*
X235691000Y-72318000D01*
X235731000Y-67395000D02*
X235731000Y-68810000D01*
X235731000Y-70890000D02*
X235731000Y-72305000D01*
X235771000Y-67408000D02*
X235771000Y-68810000D01*
X235771000Y-70890000D02*
X235771000Y-72292000D01*
X235811000Y-67422000D02*
X235811000Y-68810000D01*
X235811000Y-70890000D02*
X235811000Y-72278000D01*
X235851000Y-67436000D02*
X235851000Y-68810000D01*
X235851000Y-70890000D02*
X235851000Y-72264000D01*
X235891000Y-67452000D02*
X235891000Y-68810000D01*
X235891000Y-70890000D02*
X235891000Y-72248000D01*
X235931000Y-67468000D02*
X235931000Y-68810000D01*
X235931000Y-70890000D02*
X235931000Y-72232000D01*
X235971000Y-67485000D02*
X235971000Y-68810000D01*
X235971000Y-70890000D02*
X235971000Y-72215000D01*
X236011000Y-67502000D02*
X236011000Y-68810000D01*
X236011000Y-70890000D02*
X236011000Y-72198000D01*
X236051000Y-67521000D02*
X236051000Y-68810000D01*
X236051000Y-70890000D02*
X236051000Y-72179000D01*
X236091000Y-67540000D02*
X236091000Y-68810000D01*
X236091000Y-70890000D02*
X236091000Y-72160000D01*
X236131000Y-67560000D02*
X236131000Y-68810000D01*
X236131000Y-70890000D02*
X236131000Y-72140000D01*
X236171000Y-67582000D02*
X236171000Y-68810000D01*
X236171000Y-70890000D02*
X236171000Y-72118000D01*
X236211000Y-67603000D02*
X236211000Y-68810000D01*
X236211000Y-70890000D02*
X236211000Y-72097000D01*
X236251000Y-67626000D02*
X236251000Y-68810000D01*
X236251000Y-70890000D02*
X236251000Y-72074000D01*
X236291000Y-67650000D02*
X236291000Y-68810000D01*
X236291000Y-70890000D02*
X236291000Y-72050000D01*
X236331000Y-67675000D02*
X236331000Y-68810000D01*
X236331000Y-70890000D02*
X236331000Y-72025000D01*
X236371000Y-67701000D02*
X236371000Y-68810000D01*
X236371000Y-70890000D02*
X236371000Y-71999000D01*
X236411000Y-67728000D02*
X236411000Y-68810000D01*
X236411000Y-70890000D02*
X236411000Y-71972000D01*
X236451000Y-67755000D02*
X236451000Y-68810000D01*
X236451000Y-70890000D02*
X236451000Y-71945000D01*
X236491000Y-67785000D02*
X236491000Y-68810000D01*
X236491000Y-70890000D02*
X236491000Y-71915000D01*
X236531000Y-67815000D02*
X236531000Y-68810000D01*
X236531000Y-70890000D02*
X236531000Y-71885000D01*
X236571000Y-67846000D02*
X236571000Y-68810000D01*
X236571000Y-70890000D02*
X236571000Y-71854000D01*
X236611000Y-67879000D02*
X236611000Y-68810000D01*
X236611000Y-70890000D02*
X236611000Y-71821000D01*
X236651000Y-67913000D02*
X236651000Y-68810000D01*
X236651000Y-70890000D02*
X236651000Y-71787000D01*
X236691000Y-67949000D02*
X236691000Y-68810000D01*
X236691000Y-70890000D02*
X236691000Y-71751000D01*
X236731000Y-67986000D02*
X236731000Y-68810000D01*
X236731000Y-70890000D02*
X236731000Y-71714000D01*
X236771000Y-68024000D02*
X236771000Y-68810000D01*
X236771000Y-70890000D02*
X236771000Y-71676000D01*
X236811000Y-68065000D02*
X236811000Y-68810000D01*
X236811000Y-70890000D02*
X236811000Y-71635000D01*
X236851000Y-68107000D02*
X236851000Y-68810000D01*
X236851000Y-70890000D02*
X236851000Y-71593000D01*
X236891000Y-68151000D02*
X236891000Y-68810000D01*
X236891000Y-70890000D02*
X236891000Y-71549000D01*
X236931000Y-68197000D02*
X236931000Y-68810000D01*
X236931000Y-70890000D02*
X236931000Y-71503000D01*
X236971000Y-68245000D02*
X236971000Y-68810000D01*
X236971000Y-70890000D02*
X236971000Y-71455000D01*
X237011000Y-68296000D02*
X237011000Y-68810000D01*
X237011000Y-70890000D02*
X237011000Y-71404000D01*
X237051000Y-68350000D02*
X237051000Y-68810000D01*
X237051000Y-70890000D02*
X237051000Y-71350000D01*
X237091000Y-68407000D02*
X237091000Y-68810000D01*
X237091000Y-70890000D02*
X237091000Y-71293000D01*
X237131000Y-68467000D02*
X237131000Y-68810000D01*
X237131000Y-70890000D02*
X237131000Y-71233000D01*
X237171000Y-68531000D02*
X237171000Y-68810000D01*
X237171000Y-70890000D02*
X237171000Y-71169000D01*
X237211000Y-68599000D02*
X237211000Y-68810000D01*
X237211000Y-70890000D02*
X237211000Y-71101000D01*
X237251000Y-68672000D02*
X237251000Y-71028000D01*
X237291000Y-68752000D02*
X237291000Y-70948000D01*
X237331000Y-68839000D02*
X237331000Y-70861000D01*
X237371000Y-68935000D02*
X237371000Y-70765000D01*
X237411000Y-69045000D02*
X237411000Y-70655000D01*
X237451000Y-69173000D02*
X237451000Y-70527000D01*
X237491000Y-69332000D02*
X237491000Y-70368000D01*
X237531000Y-69566000D02*
X237531000Y-70134000D01*
X232125225Y-68375000D02*
X232625225Y-68375000D01*
X232375225Y-68125000D02*
X232375225Y-68625000D01*
X209780000Y-59690000D02*
X210780000Y-59690000D01*
X209780000Y-58190000D02*
X209780000Y-59690000D01*
X209780000Y-67310000D02*
X210780000Y-67310000D01*
X209780000Y-68810000D02*
X209780000Y-67310000D01*
X209780000Y-68810000D02*
X206780000Y-68810000D01*
X210780000Y-59690000D02*
X210780000Y-67310000D01*
X206780000Y-58190000D02*
X209780000Y-58190000D01*
X206780000Y-68810000D02*
X206780000Y-58190000D01*
X86812277Y-72462467D02*
X86712277Y-72362467D01*
X103059140Y-68781551D02*
X102659692Y-68911584D01*
X102618154Y-68784632D02*
X102892243Y-68695393D01*
X102659692Y-68911584D02*
X102618154Y-68784632D01*
X104574915Y-70541244D02*
X104670102Y-70636431D01*
X104935267Y-70425659D02*
X104840080Y-70330472D01*
X104717696Y-70371266D02*
X104629308Y-70459655D01*
X103181099Y-69405793D02*
X102895536Y-69120231D01*
X102895536Y-69120231D02*
X102990724Y-69025044D01*
X102990724Y-69025044D02*
X103085911Y-69120231D01*
X103085911Y-69120231D02*
X103521054Y-68685088D01*
X103521054Y-68685088D02*
X103616241Y-68780276D01*
X103616241Y-68780276D02*
X103181099Y-69215419D01*
X103181099Y-69215419D02*
X103276286Y-69310606D01*
X103276286Y-69310606D02*
X103181099Y-69405793D01*
X109391166Y-70846873D02*
X109179034Y-71059005D01*
X102461520Y-74382407D02*
X102673652Y-74594539D01*
X108825481Y-68018446D02*
X109037613Y-68230578D01*
X100693753Y-72614640D02*
X100905885Y-72826772D01*
X98925986Y-70846873D02*
X99138118Y-71059005D01*
X107269846Y-72968194D02*
X107057714Y-73180326D01*
X105643500Y-64836466D02*
X105855632Y-65048598D01*
X106209186Y-74028854D02*
X105997054Y-74240986D01*
X99491671Y-68018446D02*
X99279539Y-68230578D01*
X109037613Y-71200427D02*
X108825481Y-71412559D01*
X107057714Y-66250679D02*
X107269846Y-66462811D01*
X99633093Y-71553980D02*
X99845225Y-71766112D01*
X109179034Y-68372000D02*
X109391166Y-68584132D01*
X106562739Y-73675300D02*
X106350607Y-73887432D01*
X100905885Y-66604233D02*
X100693753Y-66816365D01*
X99138118Y-68372000D02*
X98925986Y-68584132D01*
X107411267Y-66604233D02*
X107623399Y-66816365D01*
X102107967Y-74028854D02*
X102320099Y-74240986D01*
X103027205Y-64482912D02*
X102815073Y-64695044D01*
X101754413Y-73675300D02*
X101966545Y-73887432D01*
X101047306Y-72968194D02*
X101259438Y-73180326D01*
X101259438Y-66250679D02*
X101047306Y-66462811D01*
X106704161Y-65897126D02*
X106916293Y-66109258D01*
X101966545Y-65543572D02*
X101754413Y-65755704D01*
X108330506Y-71907533D02*
X108118374Y-72119666D01*
X99279539Y-71200427D02*
X99491671Y-71412559D01*
X102320099Y-65190019D02*
X102107967Y-65402151D01*
X100552332Y-66957786D02*
X100340200Y-67169918D01*
X99845225Y-67664893D02*
X99633093Y-67877025D01*
X101612992Y-65897126D02*
X101400860Y-66109258D01*
X106916293Y-73321747D02*
X106704161Y-73533879D01*
X108471928Y-67664893D02*
X108684060Y-67877025D01*
X101400860Y-73321747D02*
X101612992Y-73533879D01*
X105502079Y-74735961D02*
X105289947Y-74948093D01*
X105289947Y-64482912D02*
X105502079Y-64695044D01*
X99986646Y-71907533D02*
X100198778Y-72119666D01*
X102815073Y-74735961D02*
X103027205Y-74948093D01*
X108684060Y-71553980D02*
X108471928Y-71766112D01*
X105997054Y-65190019D02*
X106209186Y-65402151D01*
X107623399Y-72614640D02*
X107411267Y-72826772D01*
X106350607Y-65543572D02*
X106562739Y-65755704D01*
X108118374Y-67311339D02*
X108330506Y-67523471D01*
X102673652Y-64836466D02*
X102461520Y-65048598D01*
X100340200Y-72261087D02*
X100552332Y-72473219D01*
X100198778Y-67311339D02*
X99986646Y-67523471D01*
X107976953Y-72261087D02*
X107764821Y-72473219D01*
X105855632Y-74382407D02*
X105643500Y-74594539D01*
X107764821Y-66957786D02*
X107976953Y-67169918D01*
X103027205Y-74948093D02*
X103734312Y-74240986D01*
X105643500Y-64836466D02*
X104936394Y-65543572D01*
X101047306Y-66462811D02*
X101754413Y-67169918D01*
X107976953Y-72261087D02*
X107269846Y-71553980D01*
X99279539Y-68230578D02*
X99986646Y-68937685D01*
X107411267Y-66604233D02*
X106704161Y-67311339D01*
X106209186Y-74028854D02*
X105502079Y-73321747D01*
X102107967Y-65402151D02*
X102815073Y-66109258D01*
X107269846Y-72968194D02*
X106562739Y-72261087D01*
X102320099Y-74240986D02*
X103027205Y-73533879D01*
X99138118Y-68372000D02*
X99845225Y-69079106D01*
X99491671Y-71412559D02*
X100198778Y-70705452D01*
X105997054Y-65190019D02*
X105289947Y-65897126D01*
X109179034Y-68372000D02*
X108471928Y-69079106D01*
X101966545Y-73887432D02*
X102673652Y-73180326D01*
X107764821Y-66957786D02*
X107057714Y-67664893D01*
X105855632Y-65048598D02*
X105148526Y-65755704D01*
X102461520Y-74382407D02*
X103168627Y-73675300D01*
X98925986Y-70846873D02*
X99633093Y-70139767D01*
X108471928Y-67664893D02*
X107764821Y-68372000D01*
X107057714Y-66250679D02*
X106350607Y-66957786D01*
X108471928Y-71766112D02*
X107764821Y-71059005D01*
X107764821Y-72473219D02*
X107057714Y-71766112D01*
X101259438Y-73180326D02*
X101966545Y-72473219D01*
X100340200Y-67169918D02*
X101047306Y-67877025D01*
X108330506Y-71907533D02*
X107623399Y-71200427D01*
X99845225Y-67664893D02*
X100552332Y-68372000D01*
X106916293Y-73321747D02*
X106209186Y-72614640D01*
X102107967Y-74028854D02*
X102815073Y-73321747D01*
X106209186Y-65402151D02*
X105502079Y-66109258D01*
X105855632Y-74382407D02*
X105148526Y-73675300D01*
X105997054Y-74240986D02*
X105289947Y-73533879D01*
X99138118Y-71059005D02*
X99845225Y-70351899D01*
X102815073Y-74735961D02*
X103522180Y-74028854D01*
X102320099Y-65190019D02*
X103027205Y-65897126D01*
X101047306Y-72968194D02*
X101754413Y-72261087D01*
X106562739Y-73675300D02*
X105855632Y-72968194D01*
X100552332Y-66957786D02*
X101259438Y-67664893D01*
X99633093Y-71553980D02*
X100340200Y-70846873D01*
X108118374Y-72119666D02*
X107411267Y-71412559D01*
X105643500Y-74594539D02*
X104936394Y-73887432D01*
X101612992Y-65897126D02*
X102320099Y-66604233D01*
X101400860Y-66109258D02*
X102107967Y-66816365D01*
X101259438Y-66250679D02*
X101966545Y-66957786D01*
X107623399Y-72614640D02*
X106916293Y-71907533D01*
X100552332Y-72473219D02*
X101259438Y-71766112D01*
X106704161Y-65897126D02*
X105997054Y-66604233D01*
X99845225Y-71766112D02*
X100552332Y-71059005D01*
X107269846Y-66462811D02*
X106562739Y-67169918D01*
X102673652Y-74594539D02*
X103380759Y-73887432D01*
X107057714Y-73180326D02*
X106350607Y-72473219D01*
X108825481Y-68018446D02*
X108118374Y-68725553D01*
X100905885Y-66604233D02*
X101612992Y-67311339D01*
X100693753Y-66816365D02*
X101400860Y-67523471D01*
X107411267Y-72826772D02*
X106704161Y-72119666D01*
X99633093Y-67877025D02*
X100340200Y-68584132D01*
X108684060Y-71553980D02*
X107976953Y-70846873D01*
X106350607Y-65543572D02*
X105643500Y-66250679D01*
X102461520Y-65048598D02*
X103168627Y-65755704D01*
X105289947Y-64482912D02*
X104582840Y-65190019D01*
X105502079Y-64695044D02*
X104794972Y-65402151D01*
X109179034Y-71059005D02*
X108471928Y-70351899D01*
X106916293Y-66109258D02*
X106209186Y-66816365D01*
X99491671Y-68018446D02*
X100198778Y-68725553D01*
X100340200Y-72261087D02*
X101047306Y-71553980D01*
X108825481Y-71412559D02*
X108118374Y-70705452D01*
X108684060Y-67877025D02*
X107976953Y-68584132D01*
X103027205Y-64482912D02*
X103734312Y-65190019D01*
X101754413Y-73675300D02*
X102461520Y-72968194D01*
X99986646Y-67523471D02*
X100693753Y-68230578D01*
X100693753Y-72614640D02*
X101400860Y-71907533D01*
X109037613Y-68230578D02*
X108330506Y-68937685D01*
X107976953Y-67169918D02*
X107269846Y-67877025D01*
X100198778Y-72119666D02*
X100905885Y-71412559D01*
X98925986Y-68584132D02*
X99633093Y-69291238D01*
X99279539Y-71200427D02*
X99986646Y-70493320D01*
X109391166Y-70846873D02*
X108684060Y-70139767D01*
X109037613Y-71200427D02*
X108330506Y-70493320D01*
X107623399Y-66816365D02*
X106916293Y-67523471D01*
X99986646Y-71907533D02*
X100693753Y-71200427D01*
X102815073Y-64695044D02*
X103522180Y-65402151D01*
X105289947Y-74948093D02*
X104582840Y-74240986D01*
X102673652Y-64836466D02*
X103380759Y-65543572D01*
X101754413Y-65755704D02*
X102461520Y-66462811D01*
X100905885Y-72826772D02*
X101612992Y-72119666D01*
X108118374Y-67311339D02*
X107411267Y-68018446D01*
X109391166Y-68584132D02*
X108684060Y-69291238D01*
X101612992Y-73533879D02*
X102320099Y-72826772D01*
X106562739Y-65755704D02*
X105855632Y-66462811D01*
X100198778Y-67311339D02*
X100905885Y-68018446D01*
X101966545Y-65543572D02*
X102673652Y-66250679D01*
X105502079Y-74735961D02*
X104794972Y-74028854D01*
X101400860Y-73321747D02*
X102107967Y-72614640D01*
X108330506Y-67523471D02*
X107623399Y-68230578D01*
X106704161Y-73533879D02*
X105997054Y-72826772D01*
X106350607Y-73887432D02*
X105643500Y-73180326D01*
X104108576Y-64815755D02*
X104208576Y-64815755D01*
X99258829Y-69665502D02*
X99258829Y-69765502D01*
X104208576Y-74615250D02*
X104108576Y-74615250D01*
X104108576Y-64815755D02*
X99258829Y-69665502D01*
X104208576Y-64815755D02*
X109058324Y-69665502D01*
X99258829Y-69765502D02*
X104108576Y-74615250D01*
X104208576Y-74615250D02*
X109058324Y-69765502D01*
X109058324Y-69765502D02*
X109058324Y-69665502D01*
X105299976Y-71524670D02*
X105152839Y-71377534D01*
X105683169Y-70847203D02*
X105778356Y-70942391D01*
X105778356Y-70942391D02*
X105336415Y-71384333D01*
X105336415Y-71384333D02*
X105445200Y-71493118D01*
X105445200Y-71493118D02*
X105299976Y-71524670D01*
X103356707Y-72831373D02*
X103257907Y-72732574D01*
X103257907Y-72732574D02*
X103506818Y-72241657D01*
X103506818Y-72241657D02*
X103015052Y-72489718D01*
X103015052Y-72489718D02*
X102917209Y-72391875D01*
X102917209Y-72391875D02*
X103357875Y-71771882D01*
X103357875Y-71771882D02*
X103454231Y-71868238D01*
X103454231Y-71868238D02*
X103175893Y-72259823D01*
X103175893Y-72259823D02*
X103621128Y-72035134D01*
X103621128Y-72035134D02*
X103713979Y-72127985D01*
X103713979Y-72127985D02*
X103488652Y-72572582D01*
X103488652Y-72572582D02*
X103880132Y-72294138D01*
X103976594Y-72390600D02*
X103356707Y-72831373D01*
X103880132Y-72294138D02*
X103976594Y-72390600D01*
X105152839Y-71377534D02*
X105683169Y-70847203D01*
X102929532Y-71833073D02*
X102841144Y-71921462D01*
X103147103Y-71887466D02*
X103051916Y-71792279D01*
X102786751Y-72003051D02*
X102881938Y-72098239D01*
X87071801Y-66728199D02*
X87071801Y-66091802D01*
X87071801Y-69268199D02*
X87071801Y-68631802D01*
X87071801Y-68631802D02*
X87708198Y-68631802D01*
X90248198Y-66091802D02*
X90248198Y-66728199D01*
X90248198Y-68631802D02*
X90248198Y-69268199D01*
X91500000Y-70220000D02*
X93440000Y-70220000D01*
X93440000Y-70220000D02*
X93740000Y-69920000D01*
X91100000Y-70220000D02*
X91500000Y-70220000D01*
X91500000Y-65140000D02*
X91100000Y-65140000D01*
X93740000Y-65440000D02*
X93440000Y-65140000D01*
X93440000Y-65140000D02*
X91500000Y-65140000D01*
X93740000Y-69920000D02*
X93740000Y-65440000D01*
X87708198Y-69268199D02*
X87071801Y-69268199D01*
X87708198Y-68631802D02*
X87708198Y-69268199D01*
X92788198Y-66091802D02*
X92788198Y-66728199D01*
X92788198Y-68631802D02*
X92788198Y-69268199D01*
X92151801Y-66728199D02*
X92151801Y-66091802D01*
X92151801Y-66091802D02*
X92788198Y-66091802D01*
X89611801Y-66728199D02*
X89611801Y-66091802D01*
X92788198Y-66728199D02*
X92151801Y-66728199D01*
X92788198Y-69268199D02*
X92151801Y-69268199D01*
X90248198Y-66728199D02*
X89611801Y-66728199D01*
X87708198Y-66091802D02*
X87708198Y-66728199D01*
X90248198Y-69268199D02*
X89611801Y-69268199D01*
X89611801Y-69268199D02*
X89611801Y-68631802D01*
X89611801Y-68631802D02*
X90248198Y-68631802D01*
X87071801Y-66091802D02*
X87708198Y-66091802D01*
X92151801Y-69268199D02*
X92151801Y-68631802D01*
X92151801Y-68631802D02*
X92788198Y-68631802D01*
X87708198Y-66728199D02*
X87071801Y-66728199D01*
X89611801Y-66091802D02*
X90248198Y-66091802D01*
X86119000Y-68138528D02*
X86119000Y-68327631D01*
X119662804Y-65841334D02*
X119662809Y-65842282D01*
X116152809Y-72242282D02*
X116152809Y-72742282D01*
X116152809Y-67242282D02*
X116152809Y-66742282D01*
X119662809Y-65842282D02*
X119662807Y-65841663D01*
X119662809Y-73642282D02*
X119662809Y-65842282D01*
X119662807Y-73642900D02*
X119662809Y-73642282D01*
X116262809Y-65742282D02*
X119562809Y-65742282D01*
X116262809Y-65742282D02*
X116262190Y-65742283D01*
X116162809Y-73642282D02*
X116162809Y-65842282D01*
X116162809Y-73642282D02*
X116162811Y-73642900D01*
X116162811Y-65841663D02*
X116162809Y-65842282D01*
X116262809Y-73742282D02*
X119562809Y-73742282D01*
X118553851Y-73658200D02*
X117271767Y-73658200D01*
X116262190Y-73742280D02*
X116262809Y-73742282D01*
X117471767Y-73049226D02*
X118353851Y-73049226D01*
X118753851Y-73635812D02*
X118753851Y-73449226D01*
X117071767Y-73449226D02*
X117071767Y-73635812D01*
X103884275Y-73217222D02*
X104020576Y-73223278D01*
X104557174Y-73169841D02*
X104423210Y-73136377D01*
X85812378Y-71707983D02*
X85812277Y-71712467D01*
X90912277Y-72362467D02*
X91562277Y-72362467D01*
X90812277Y-74262467D02*
X90812277Y-72462467D01*
X91662277Y-72462467D02*
X91662277Y-74262467D01*
X91562277Y-74362467D02*
X90912277Y-74362467D01*
X90312277Y-72462467D02*
X90312277Y-74262467D01*
X87312277Y-74262467D02*
X87312277Y-72462467D01*
X90212277Y-74362467D02*
X87412277Y-74362467D01*
X87412277Y-72362467D02*
X90212277Y-72362467D01*
X86812277Y-72462467D02*
X86812277Y-74262467D01*
X85962277Y-74262467D02*
X85962277Y-72462467D01*
X86062277Y-72362467D02*
X86712277Y-72362467D01*
X86712277Y-74362467D02*
X86062277Y-74362467D01*
X91712277Y-71612467D02*
X85912277Y-71612467D01*
X85912277Y-75112467D02*
X91712277Y-75112467D01*
X91812277Y-75012467D02*
X91812277Y-71712467D01*
X85812277Y-71712467D02*
X85812277Y-75012467D01*
X77990469Y-73722216D02*
X77827578Y-73537341D01*
X77955241Y-73424858D02*
X77640000Y-73702613D01*
X77640000Y-73702613D02*
X77802892Y-73887488D01*
X77802892Y-73887488D02*
X78119153Y-73608834D01*
X77802892Y-65812513D02*
X78119153Y-66091167D01*
X77640000Y-65997388D02*
X77802892Y-65812513D01*
X77990469Y-65977785D02*
X77827578Y-66162660D01*
X77955241Y-66275143D02*
X77640000Y-65997388D01*
X78190000Y-73309272D02*
X78190000Y-73564928D01*
X78290000Y-73300012D02*
X78285785Y-73300012D01*
X78290000Y-66399989D02*
X78285785Y-66399989D01*
X78190000Y-66390729D02*
X78190000Y-66135073D01*
X83300000Y-66399989D02*
X83300000Y-73300012D01*
X78289936Y-73046411D02*
X83300000Y-73046411D01*
X78284425Y-73546411D02*
X78281500Y-73546428D01*
X78284425Y-73546411D02*
X83290000Y-73546411D01*
X83290000Y-66153590D02*
X83290000Y-73546411D01*
X78290000Y-73539897D02*
X78290000Y-73050000D01*
X78284425Y-66153590D02*
X83290000Y-66153590D01*
X78284425Y-66153590D02*
X78281500Y-66153573D01*
X78290000Y-66160104D02*
X78290000Y-66650000D01*
X78289936Y-66653590D02*
X83300000Y-66653590D01*
X78290000Y-66650000D02*
X78289936Y-66653590D01*
X78290000Y-73050000D02*
X78289936Y-73046411D01*
X78268825Y-66711536D02*
X78268825Y-72988465D01*
X77640000Y-67000000D02*
X77640000Y-72700000D01*
X77783395Y-72700000D02*
X77640000Y-72700000D01*
X77783395Y-67000000D02*
X77640000Y-67000000D01*
X77844789Y-66750000D02*
X78190000Y-66750000D01*
X77783395Y-67000000D02*
X77783395Y-72700000D01*
X77844789Y-72950000D02*
X78190000Y-72950000D01*
X78125431Y-72950000D02*
X78125431Y-66750000D01*
X115457588Y-72962050D02*
X115457588Y-66662050D01*
X110507588Y-66662050D02*
X110507588Y-72962050D01*
X115032588Y-66662050D02*
X115032588Y-72962050D01*
X110932588Y-72962050D02*
X110932588Y-66662050D01*
X102854104Y-71364573D02*
X102529978Y-71374665D01*
X102902336Y-71316342D02*
X102854104Y-71364573D01*
X102548782Y-70962788D02*
X102902336Y-71316342D01*
X102460394Y-71051177D02*
X102548782Y-70962788D01*
X102638870Y-71229653D02*
X102460394Y-71051177D01*
X102520098Y-71237727D02*
X102638870Y-71229653D01*
X102439996Y-71561109D02*
X102535184Y-71656297D01*
X103854210Y-73138501D02*
X103759023Y-73233689D01*
X103759023Y-73043314D02*
X103854210Y-73138501D01*
X104194165Y-72608171D02*
X103759023Y-73043314D01*
X104098978Y-72512984D02*
X104194165Y-72608171D01*
X103663835Y-72948126D02*
X104098978Y-72512984D01*
X103568648Y-72852939D02*
X103663835Y-72948126D01*
X103473460Y-72948126D02*
X103568648Y-72852939D01*
X103759023Y-73233689D02*
X103473460Y-72948126D01*
X104078049Y-69559517D02*
X104081449Y-69420773D01*
X103728639Y-69769333D02*
X103865152Y-69772414D01*
X87241170Y-70221000D02*
X87275124Y-70221000D01*
X87324503Y-70221000D02*
X87369375Y-70221000D01*
X86512003Y-70221000D02*
X86701106Y-70221000D01*
X91100000Y-70220000D02*
X86220000Y-70220000D01*
X90530000Y-68350000D02*
X90530000Y-69550000D01*
X91200000Y-67780000D02*
X86120000Y-67780000D01*
X86790000Y-68350000D02*
X90530000Y-68350000D01*
X86120000Y-70120000D02*
X86120000Y-65240000D01*
X90530000Y-69550000D02*
X86790000Y-69550000D01*
X86790000Y-69550000D02*
X86790000Y-68350000D01*
X91200000Y-67780000D02*
X91200000Y-70120000D01*
X105710365Y-71935060D02*
X105451999Y-71676694D01*
X105451999Y-71676694D02*
X105547187Y-71581507D01*
X105547187Y-71581507D02*
X105710365Y-71744685D01*
X105710365Y-71744685D02*
X105812352Y-71642699D01*
X105812352Y-71642699D02*
X105649173Y-71479520D01*
X105649173Y-71479520D02*
X105744361Y-71384333D01*
X105744361Y-71384333D02*
X105907539Y-71547511D01*
X105907539Y-71547511D02*
X106145508Y-71309542D01*
X106145508Y-71309542D02*
X106240695Y-71404730D01*
X106240695Y-71404730D02*
X105710365Y-71935060D01*
X86790000Y-65810000D02*
X90530000Y-65810000D01*
X90530000Y-65810000D02*
X90530000Y-67010000D01*
X86220000Y-65140000D02*
X91100000Y-65140000D01*
X91200000Y-65240000D02*
X91200000Y-67780000D01*
X86169500Y-67580000D02*
X91200000Y-67580000D01*
X90530000Y-67010000D02*
X86790000Y-67010000D01*
X86790000Y-67010000D02*
X86790000Y-65810000D01*
X103137483Y-68752341D02*
X103059140Y-68781551D01*
X103226037Y-68694543D02*
X103137483Y-68752341D01*
X105271859Y-70609962D02*
X105250682Y-70577895D01*
X105278209Y-70647879D02*
X105271859Y-70609962D01*
X105256368Y-70721238D02*
X105278209Y-70647879D01*
X105159107Y-70840936D02*
X105256368Y-70721238D01*
X105052677Y-70614183D02*
X104983074Y-70677013D01*
X105156132Y-70556223D02*
X105052677Y-70614183D01*
X104862479Y-70911944D02*
X104883531Y-70945047D01*
X104857809Y-70872911D02*
X104862479Y-70911944D01*
X104882563Y-70798611D02*
X104857809Y-70872911D01*
X104983074Y-70677013D02*
X104882563Y-70798611D01*
X105033989Y-70946153D02*
X105159107Y-70840936D01*
X104957725Y-70973953D02*
X105033989Y-70946153D01*
X104917552Y-70967419D02*
X104957725Y-70973953D01*
X104883531Y-70945047D02*
X104917552Y-70967419D01*
X104799465Y-70681541D02*
X104887886Y-70581826D01*
X104734603Y-70797430D02*
X104799465Y-70681541D01*
X104720244Y-70862391D02*
X104734603Y-70797430D01*
X104724728Y-70928652D02*
X104720244Y-70862391D01*
X104749572Y-70990267D02*
X104724728Y-70928652D01*
X104790680Y-71042571D02*
X104749572Y-70990267D01*
X105293696Y-70440965D02*
X105345445Y-70482283D01*
X105232564Y-70415874D02*
X105293696Y-70440965D01*
X105166539Y-70413116D02*
X105232564Y-70415874D01*
X105102190Y-70428767D02*
X105166539Y-70413116D01*
X104987084Y-70493780D02*
X105102190Y-70428767D01*
X104887886Y-70581826D02*
X104987084Y-70493780D01*
X105340602Y-70838685D02*
X105253232Y-70937185D01*
X105403761Y-70723729D02*
X105340602Y-70838685D01*
X105417266Y-70659406D02*
X105403761Y-70723729D01*
X105412241Y-70593974D02*
X105417266Y-70659406D01*
X105386557Y-70533582D02*
X105412241Y-70593974D01*
X105345445Y-70482283D02*
X105386557Y-70533582D01*
X105121107Y-71049199D02*
X104997840Y-71105463D01*
X105253232Y-70937185D02*
X105121107Y-71049199D01*
X104873010Y-71097224D02*
X104790680Y-71042571D01*
X104997840Y-71105463D02*
X104873010Y-71097224D01*
X104598996Y-70676921D02*
X104535926Y-70689231D01*
X104670102Y-70636431D02*
X104598996Y-70676921D01*
X104435259Y-70668734D02*
X104369455Y-70621346D01*
X104535926Y-70689231D02*
X104435259Y-70668734D01*
X104651770Y-70270041D02*
X104717696Y-70371266D01*
X104646916Y-70209742D02*
X104651770Y-70270041D01*
X104656296Y-70180861D02*
X104646916Y-70209742D01*
X104674246Y-70156351D02*
X104656296Y-70180861D01*
X104481006Y-70409794D02*
X104461667Y-70423322D01*
X104503670Y-70403056D02*
X104481006Y-70409794D01*
X104550451Y-70407971D02*
X104503670Y-70403056D01*
X104629308Y-70459655D02*
X104550451Y-70407971D01*
X103855031Y-69487392D02*
X103755729Y-69490888D01*
X103964058Y-69425128D02*
X103855031Y-69487392D01*
X103733372Y-69583505D02*
X103690075Y-69644718D01*
X103755729Y-69490888D02*
X103733372Y-69583505D01*
X103465782Y-69287565D02*
X103539327Y-69274486D01*
X103385603Y-69337271D02*
X103465782Y-69287565D01*
X105052677Y-70614183D02*
X104983074Y-70677013D01*
X105156132Y-70556223D02*
X105052677Y-70614183D01*
X105271859Y-70609962D02*
X105250682Y-70577895D01*
X105278209Y-70647879D02*
X105271859Y-70609962D01*
X105256368Y-70721238D02*
X105278209Y-70647879D01*
X105159107Y-70840936D02*
X105256368Y-70721238D01*
X105033989Y-70946153D02*
X105159107Y-70840936D01*
X104957725Y-70973953D02*
X105033989Y-70946153D01*
X104917552Y-70967419D02*
X104957725Y-70973953D01*
X104883531Y-70945047D02*
X104917552Y-70967419D01*
X104862479Y-70911944D02*
X104883531Y-70945047D01*
X104857809Y-70872911D02*
X104862479Y-70911944D01*
X104882563Y-70798611D02*
X104857809Y-70872911D01*
X104983074Y-70677013D02*
X104882563Y-70798611D01*
X104424597Y-73011068D02*
X104404300Y-72981485D01*
X104433743Y-73045815D02*
X104424597Y-73011068D01*
X104423210Y-73136377D02*
X104433743Y-73045815D01*
X104144959Y-72951602D02*
X104192784Y-72881517D01*
X104125962Y-73057974D02*
X104144959Y-72951602D01*
X104128084Y-73115003D02*
X104125962Y-73057974D01*
X104133080Y-73187476D02*
X104128084Y-73115003D01*
X104136718Y-73249245D02*
X104133080Y-73187476D01*
X104136692Y-73327920D02*
X104136718Y-73249245D01*
X104132121Y-73344259D02*
X104136692Y-73327920D01*
X104120119Y-73362128D02*
X104132121Y-73344259D01*
X102692842Y-71871601D02*
X102673503Y-71885129D01*
X102715506Y-71864863D02*
X102692842Y-71871601D01*
X102762287Y-71869778D02*
X102715506Y-71864863D01*
X102841144Y-71921462D02*
X102762287Y-71869778D01*
X102863606Y-71731848D02*
X102929532Y-71833073D01*
X102858751Y-71671549D02*
X102863606Y-71731848D01*
X102868131Y-71642668D02*
X102858751Y-71671549D01*
X102886081Y-71618158D02*
X102868131Y-71642668D01*
X102647095Y-72130541D02*
X102581290Y-72083153D01*
X102747762Y-72151038D02*
X102647095Y-72130541D01*
X102810832Y-72138729D02*
X102747762Y-72151038D01*
X102881938Y-72098239D02*
X102810832Y-72138729D01*
X102378478Y-71389950D02*
X102272569Y-71442975D01*
X102529978Y-71374665D02*
X102378478Y-71389950D01*
X102369758Y-71604449D02*
X102439996Y-71561109D01*
X102317327Y-71607702D02*
X102369758Y-71604449D01*
X102271400Y-71582888D02*
X102317327Y-71607702D01*
X105121107Y-71049199D02*
X104997840Y-71105463D01*
X105253232Y-70937185D02*
X105121107Y-71049199D01*
X105340602Y-70838685D02*
X105253232Y-70937185D01*
X105403761Y-70723729D02*
X105340602Y-70838685D01*
X105417266Y-70659406D02*
X105403761Y-70723729D01*
X105412241Y-70593974D02*
X105417266Y-70659406D01*
X105386557Y-70533582D02*
X105412241Y-70593974D01*
X105345445Y-70482283D02*
X105386557Y-70533582D01*
X105293696Y-70440965D02*
X105345445Y-70482283D01*
X105232564Y-70415874D02*
X105293696Y-70440965D01*
X105166539Y-70413116D02*
X105232564Y-70415874D01*
X105102190Y-70428767D02*
X105166539Y-70413116D01*
X104987084Y-70493780D02*
X105102190Y-70428767D01*
X104887886Y-70581826D02*
X104987084Y-70493780D01*
X104799465Y-70681541D02*
X104887886Y-70581826D01*
X104734603Y-70797430D02*
X104799465Y-70681541D01*
X104720244Y-70862391D02*
X104734603Y-70797430D01*
X104724728Y-70928652D02*
X104720244Y-70862391D01*
X104749572Y-70990267D02*
X104724728Y-70928652D01*
X104790680Y-71042571D02*
X104749572Y-70990267D01*
X104873010Y-71097224D02*
X104790680Y-71042571D01*
X104997840Y-71105463D02*
X104873010Y-71097224D01*
X104481006Y-70409794D02*
X104461667Y-70423322D01*
X104503670Y-70403056D02*
X104481006Y-70409794D01*
X104550451Y-70407971D02*
X104503670Y-70403056D01*
X104629308Y-70459655D02*
X104550451Y-70407971D01*
X104651770Y-70270041D02*
X104717696Y-70371266D01*
X104646916Y-70209742D02*
X104651770Y-70270041D01*
X104656296Y-70180861D02*
X104646916Y-70209742D01*
X104674246Y-70156351D02*
X104656296Y-70180861D01*
X104435259Y-70668734D02*
X104369455Y-70621346D01*
X104535926Y-70689231D02*
X104435259Y-70668734D01*
X104598996Y-70676921D02*
X104535926Y-70689231D01*
X104670102Y-70636431D02*
X104598996Y-70676921D01*
X104279237Y-69454488D02*
X104408337Y-69545175D01*
X104081449Y-69420773D02*
X104279237Y-69454488D01*
X103886234Y-69914997D02*
X103948229Y-70009745D01*
X103865152Y-69772414D02*
X103886234Y-69914997D01*
X103745568Y-69927824D02*
X103728639Y-69769333D01*
X103849323Y-70101214D02*
X103745568Y-69927824D01*
X103733372Y-69583505D02*
X103690075Y-69644718D01*
X103755729Y-69490888D02*
X103733372Y-69583505D01*
X103855031Y-69487392D02*
X103755729Y-69490888D01*
X103964058Y-69425128D02*
X103855031Y-69487392D01*
X103465782Y-69287565D02*
X103539327Y-69274486D01*
X103385603Y-69337271D02*
X103465782Y-69287565D01*
X103137483Y-68752341D02*
X103059140Y-68781551D01*
X103226037Y-68694543D02*
X103137483Y-68752341D01*
X108408576Y-69715502D02*
G75*
G03*
X108408576Y-69715502I-250000J0D01*
G01*
X102692842Y-71871601D02*
X102673503Y-71885129D01*
X102715506Y-71864863D02*
X102692842Y-71871601D01*
X102762287Y-71869778D02*
X102715506Y-71864863D01*
X102841144Y-71921462D02*
X102762287Y-71869778D01*
X102863606Y-71731848D02*
X102929532Y-71833073D01*
X102858751Y-71671549D02*
X102863606Y-71731848D01*
X102868131Y-71642668D02*
X102858751Y-71671549D01*
X102886081Y-71618158D02*
X102868131Y-71642668D01*
X102647095Y-72130541D02*
X102581290Y-72083153D01*
X102747762Y-72151038D02*
X102647095Y-72130541D01*
X102810832Y-72138729D02*
X102747762Y-72151038D01*
X102881938Y-72098239D02*
X102810832Y-72138729D01*
X118338685Y-66690855D02*
G75*
G03*
X118338685Y-66690855I-425876J0D01*
G01*
X104132121Y-73344259D02*
X104136692Y-73327920D01*
X104120119Y-73362128D02*
X104132121Y-73344259D01*
X104136718Y-73249245D02*
X104133080Y-73187476D01*
X104136692Y-73327920D02*
X104136718Y-73249245D01*
X104128084Y-73115003D02*
X104125962Y-73057974D01*
X104133080Y-73187476D02*
X104128084Y-73115003D01*
X104144959Y-72951602D02*
X104192784Y-72881517D01*
X104125962Y-73057974D02*
X104144959Y-72951602D01*
X104424597Y-73011068D02*
X104404300Y-72981485D01*
X104433743Y-73045815D02*
X104424597Y-73011068D01*
X104423210Y-73136377D02*
X104433743Y-73045815D01*
X78289669Y-73541487D02*
X78290000Y-73539897D01*
X78281500Y-73546428D02*
X78289669Y-73541487D01*
X78289669Y-66158514D02*
X78290000Y-66160104D01*
X78281500Y-66153573D02*
X78289669Y-66158514D01*
X102369758Y-71604449D02*
X102439996Y-71561109D01*
X102317327Y-71607702D02*
X102369758Y-71604449D01*
X102271400Y-71582888D02*
X102317327Y-71607702D01*
X102378478Y-71389950D02*
X102272569Y-71442975D01*
X102529978Y-71374665D02*
X102378478Y-71389950D01*
X103745568Y-69927824D02*
X103728639Y-69769333D01*
X103849323Y-70101214D02*
X103745568Y-69927824D01*
X104279237Y-69454488D02*
X104408337Y-69545175D01*
X104081449Y-69420773D02*
X104279237Y-69454488D01*
X103886234Y-69914997D02*
X103948229Y-70009745D01*
X103865152Y-69772414D02*
X103886234Y-69914997D01*
X78680000Y-78800000D02*
X78680000Y-77470000D01*
X80010000Y-78800000D02*
X78680000Y-78800000D01*
X129540000Y-63500000D02*
X78740000Y-63500000D01*
X129540000Y-60960000D02*
X129540000Y-63500000D01*
X78740000Y-60960000D02*
X129540000Y-60960000D01*
X78740000Y-63500000D02*
X78740000Y-60960000D01*
X129600000Y-78800000D02*
X81280000Y-78800000D01*
X129600000Y-76140000D02*
X129600000Y-78800000D01*
X81280000Y-76140000D02*
X129600000Y-76140000D01*
X81280000Y-78800000D02*
X81280000Y-76140000D01*
X123130000Y-64710000D02*
X123130000Y-74990000D01*
X125790000Y-64710000D02*
X123130000Y-64710000D01*
X125790000Y-74990000D02*
X125790000Y-64710000D01*
X123130000Y-74990000D02*
X125790000Y-74990000D01*
X130715000Y-81225000D02*
X77565000Y-81225000D01*
X130715000Y-58475000D02*
X130715000Y-81225000D01*
X77565000Y-58475000D02*
X130715000Y-58475000D01*
X77565000Y-81225000D02*
X77565000Y-58475000D01*
X86120000Y-65240000D02*
G75*
G02*
X86220000Y-65140000I100000J0D01*
G01*
X91100000Y-65140001D02*
G75*
G02*
X91199999Y-65240000I0J-99999D01*
G01*
X86220000Y-70220000D02*
G75*
G02*
X86120000Y-70120000I0J100000D01*
G01*
X91200000Y-70120000D02*
G75*
G02*
X91100000Y-70220000I-100000J0D01*
G01*
X104308689Y-70005177D02*
G75*
G02*
X103948229Y-70009745I-182440J172075D01*
G01*
X104313574Y-69640787D02*
G75*
G02*
X104308688Y-70005177I-172477J-179915D01*
G01*
X104078049Y-69559517D02*
G75*
G02*
X104313574Y-69640787I32211J-288568D01*
G01*
X104408337Y-69545175D02*
G75*
G02*
X104404088Y-70100152I-259124J-275521D01*
G01*
X104404088Y-70100152D02*
G75*
G02*
X103849323Y-70101214I-277896J267339D01*
G01*
X102535184Y-71656297D02*
G75*
G02*
X102170794Y-71672657I-189875J162874D01*
G01*
X102170794Y-71672658D02*
G75*
G02*
X102170688Y-71354480I155962J159141D01*
G01*
X102170688Y-71354481D02*
G75*
G02*
X102520098Y-71237727I326764J-396693D01*
G01*
X102271400Y-71582887D02*
G75*
G02*
X102272569Y-71442975I65451J69414D01*
G01*
X115032588Y-72962050D02*
G75*
G02*
X110932588Y-72962050I-2050000J0D01*
G01*
X110932588Y-66662050D02*
G75*
G02*
X115032588Y-66662050I2050000J0D01*
G01*
X110507588Y-66662050D02*
G75*
G02*
X115457588Y-66662050I2475000J0D01*
G01*
X115457588Y-72962050D02*
G75*
G02*
X110507588Y-72962050I-2475000J0D01*
G01*
X77988182Y-72950000D02*
G75*
G02*
X77783395Y-72700000I25102J229438D01*
G01*
X77783395Y-67000000D02*
G75*
G02*
X77988183Y-66750001I229889J20561D01*
G01*
X77640001Y-67000000D02*
G75*
G02*
X77844789Y-66750001I229889J20561D01*
G01*
X77844788Y-72950001D02*
G75*
G02*
X77640000Y-72700000I25102J229439D01*
G01*
X78289937Y-66653590D02*
G75*
G02*
X78190000Y-66750001I-99937J3590D01*
G01*
X78190001Y-72950000D02*
G75*
G02*
X78289936Y-73046411I-1J-100000D01*
G01*
X78285785Y-66399989D02*
G75*
G02*
X77955241Y-66275143I0J500000D01*
G01*
X78281500Y-66153573D02*
G75*
G02*
X78119153Y-66091167I2925J249983D01*
G01*
X78119153Y-73608834D02*
G75*
G02*
X78281500Y-73546428I165272J-187577D01*
G01*
X77955241Y-73424858D02*
G75*
G02*
X78285785Y-73300012I330544J-375154D01*
G01*
X91812277Y-75012467D02*
G75*
G02*
X91712277Y-75112467I-100000J0D01*
G01*
X85812277Y-71712467D02*
G75*
G02*
X85912277Y-71612467I100000J0D01*
G01*
X85912277Y-75112467D02*
G75*
G02*
X85812277Y-75012467I0J100000D01*
G01*
X91712277Y-71612467D02*
G75*
G02*
X91812277Y-71712467I0J-100000D01*
G01*
X86812277Y-74262467D02*
G75*
G02*
X86712277Y-74362467I-100000J0D01*
G01*
X85962277Y-72462467D02*
G75*
G02*
X86062277Y-72362467I100000J0D01*
G01*
X86062277Y-74362467D02*
G75*
G02*
X85962277Y-74262467I0J100000D01*
G01*
X90212277Y-72362467D02*
G75*
G02*
X90312277Y-72462467I0J-100000D01*
G01*
X87412277Y-74362467D02*
G75*
G02*
X87312277Y-74262467I0J100000D01*
G01*
X87312277Y-72462467D02*
G75*
G02*
X87412277Y-72362467I100000J0D01*
G01*
X90312277Y-74262467D02*
G75*
G02*
X90212277Y-74362467I-100000J0D01*
G01*
X91662277Y-74262467D02*
G75*
G02*
X91562277Y-74362467I-100000J0D01*
G01*
X91562277Y-72362467D02*
G75*
G02*
X91662277Y-72462467I0J-100000D01*
G01*
X90812277Y-72462467D02*
G75*
G02*
X90912277Y-72362467I100000J0D01*
G01*
X90912277Y-74362467D02*
G75*
G02*
X90812277Y-74262467I0J100000D01*
G01*
X103946211Y-73448073D02*
G75*
G02*
X103884275Y-73217222I192017J175251D01*
G01*
X104219875Y-73452748D02*
G75*
G02*
X103946210Y-73448073I-134540J136546D01*
G01*
X104272355Y-73132977D02*
G75*
G02*
X104219874Y-73452747I-338518J-108634D01*
G01*
X104272355Y-73132977D02*
G75*
G02*
X104293496Y-72971180I204064J55616D01*
G01*
X104293497Y-72971180D02*
G75*
G02*
X104404300Y-72981485I50193J-61156D01*
G01*
X104502993Y-72889803D02*
G75*
G02*
X104557174Y-73169841I-174957J-179110D01*
G01*
X104192784Y-72881517D02*
G75*
G02*
X104502993Y-72889803I151252J-148378D01*
G01*
X104120118Y-73362128D02*
G75*
G02*
X104042460Y-73353948I-34717J43125D01*
G01*
X104042461Y-73353947D02*
G75*
G02*
X104020576Y-73223278I105181J84783D01*
G01*
X117071767Y-73449226D02*
G75*
G02*
X117471767Y-73049226I400000J0D01*
G01*
X118353851Y-73049226D02*
G75*
G02*
X118753851Y-73449226I0J-400000D01*
G01*
X119563428Y-65742284D02*
G75*
G02*
X119662807Y-65841663I-619J-99998D01*
G01*
X116262189Y-73742280D02*
G75*
G02*
X116162811Y-73642900I620J99998D01*
G01*
X119662807Y-73642901D02*
G75*
G02*
X119563428Y-73742280I-99998J619D01*
G01*
X116162810Y-65841663D02*
G75*
G02*
X116262190Y-65742283I99999J-619D01*
G01*
X117271767Y-73658199D02*
G75*
G02*
X117071767Y-73635812I-49374J463456D01*
G01*
X118753851Y-73635812D02*
G75*
G02*
X118553851Y-73658200I-148598J422948D01*
G01*
X102581290Y-72083154D02*
G75*
G02*
X102572260Y-71795997I136123J148001D01*
G01*
X102572261Y-71795997D02*
G75*
G02*
X102754349Y-71755840I122430J-122238D01*
G01*
X102754349Y-71755839D02*
G75*
G02*
X102791850Y-71522014I169355J92758D01*
G01*
X102791851Y-71522014D02*
G75*
G02*
X103147422Y-71534232I171918J-176854D01*
G01*
X103147422Y-71534231D02*
G75*
G02*
X103147103Y-71887466I-169651J-176465D01*
G01*
X103047029Y-71624214D02*
G75*
G02*
X103051916Y-71792279I-83460J-86530D01*
G01*
X102886081Y-71618158D02*
G75*
G02*
X103047029Y-71624214I77585J-79814D01*
G01*
X102677116Y-71988603D02*
G75*
G02*
X102673503Y-71885129I46311J53417D01*
G01*
X102786751Y-72003051D02*
G75*
G02*
X102677115Y-71988603I-45131J80733D01*
G01*
X102892243Y-68695393D02*
G75*
G02*
X102900423Y-68367443I163695J159994D01*
G01*
X102900423Y-68367442D02*
G75*
G02*
X103227843Y-68364681I165063J-159052D01*
G01*
X103227842Y-68364680D02*
G75*
G02*
X103226037Y-68694543I-165584J-164030D01*
G01*
X103539327Y-69274485D02*
G75*
G02*
X103603706Y-69064776I223304J46184D01*
G01*
X103603706Y-69064776D02*
G75*
G02*
X103944723Y-69081561I162949J-161978D01*
G01*
X103944723Y-69081562D02*
G75*
G02*
X103964058Y-69425128I-137298J-180054D01*
G01*
X103690076Y-69644718D02*
G75*
G02*
X103387728Y-69639619I-148798J143427D01*
G01*
X103387727Y-69639619D02*
G75*
G02*
X103385603Y-69337271I142157J152180D01*
G01*
X104574915Y-70541244D02*
G75*
G02*
X104465279Y-70526796I-45131J80733D01*
G01*
X104369455Y-70621345D02*
G75*
G02*
X104360425Y-70334190I136122J148000D01*
G01*
X104360425Y-70334190D02*
G75*
G02*
X104542513Y-70294033I122430J-122238D01*
G01*
X104542513Y-70294032D02*
G75*
G02*
X104580014Y-70060207I169355J92758D01*
G01*
X104580015Y-70060208D02*
G75*
G02*
X104935586Y-70072424I171919J-176853D01*
G01*
X104935586Y-70072425D02*
G75*
G02*
X104935267Y-70425659I-169650J-176464D01*
G01*
X104835193Y-70162407D02*
G75*
G02*
X104840080Y-70330472I-83460J-86530D01*
G01*
X104674245Y-70156351D02*
G75*
G02*
X104835193Y-70162406I77585J-79814D01*
G01*
X104465280Y-70526796D02*
G75*
G02*
X104461667Y-70423322I46311J53417D01*
G01*
X102985200Y-68611573D02*
G75*
G02*
X102990193Y-68468048I70493J69397D01*
G01*
X103126174Y-68604029D02*
G75*
G02*
X102985200Y-68611573I-74153J64740D01*
G01*
X103134460Y-68461674D02*
G75*
G02*
X103126175Y-68604030I-74927J-67058D01*
G01*
X102990192Y-68468049D02*
G75*
G02*
X103134461Y-68461674I75248J-67280D01*
G01*
X103485359Y-69427891D02*
G75*
G02*
X103605830Y-69422579I62715J-53569D01*
G01*
X103605831Y-69422579D02*
G75*
G02*
X103601687Y-69542732I-59580J-58093D01*
G01*
X103601688Y-69542732D02*
G75*
G02*
X103485252Y-69546769I-60112J52612D01*
G01*
X103485253Y-69546768D02*
G75*
G02*
X103485359Y-69427891I54157J59390D01*
G01*
X103692413Y-69166443D02*
G75*
G02*
X103850492Y-69177705I73960J-76930D01*
G01*
X103850491Y-69177705D02*
G75*
G02*
X103860265Y-69338546I-72131J-85101D01*
G01*
X103860265Y-69338546D02*
G75*
G02*
X103699743Y-69326116I-74125J85459D01*
G01*
X103699743Y-69326116D02*
G75*
G02*
X103692413Y-69166444I73551J83381D01*
G01*
X105156132Y-70556223D02*
G75*
G02*
X105250682Y-70577895I29818J-86999D01*
G01*
X202591422Y-58460000D02*
X203108578Y-58460000D01*
X202591422Y-59880000D02*
X203108578Y-59880000D01*
X202591422Y-61000000D02*
X203108578Y-61000000D01*
X202591422Y-62420000D02*
X203108578Y-62420000D01*
X202491422Y-63860000D02*
X203008578Y-63860000D01*
X202491422Y-65280000D02*
X203008578Y-65280000D01*
X136250000Y-81522836D02*
X136250000Y-81307164D01*
X135530000Y-81522836D02*
X135530000Y-81307164D01*
X138070000Y-81522836D02*
X138070000Y-81307164D01*
X138790000Y-81522836D02*
X138790000Y-81307164D01*
X141330000Y-81387836D02*
X141330000Y-81172164D01*
X140610000Y-81387836D02*
X140610000Y-81172164D01*
D12*
X177466666Y-81692380D02*
X177466666Y-82406666D01*
X177419047Y-82549523D01*
X177323809Y-82644761D01*
X177180952Y-82692380D01*
X177085714Y-82692380D01*
X177847619Y-81692380D02*
X178466666Y-81692380D01*
X178133333Y-82073333D01*
X178276190Y-82073333D01*
X178371428Y-82120952D01*
X178419047Y-82168571D01*
X178466666Y-82263809D01*
X178466666Y-82501904D01*
X178419047Y-82597142D01*
X178371428Y-82644761D01*
X178276190Y-82692380D01*
X177990476Y-82692380D01*
X177895238Y-82644761D01*
X177847619Y-82597142D01*
X127936666Y-53752380D02*
X127936666Y-54466666D01*
X127889047Y-54609523D01*
X127793809Y-54704761D01*
X127650952Y-54752380D01*
X127555714Y-54752380D01*
X128365238Y-53847619D02*
X128412857Y-53800000D01*
X128508095Y-53752380D01*
X128746190Y-53752380D01*
X128841428Y-53800000D01*
X128889047Y-53847619D01*
X128936666Y-53942857D01*
X128936666Y-54038095D01*
X128889047Y-54180952D01*
X128317619Y-54752380D01*
X128936666Y-54752380D01*
X211392380Y-56731904D02*
X212106666Y-56731904D01*
X212249523Y-56779523D01*
X212344761Y-56874761D01*
X212392380Y-57017619D01*
X212392380Y-57112857D01*
X212392380Y-55731904D02*
X212392380Y-56303333D01*
X212392380Y-56017619D02*
X211392380Y-56017619D01*
X211535238Y-56112857D01*
X211630476Y-56208095D01*
X211678095Y-56303333D01*
X212392380Y-55303333D02*
X211392380Y-55303333D01*
X211773333Y-55303333D02*
X211725714Y-55208095D01*
X211725714Y-55017619D01*
X211773333Y-54922380D01*
X211820952Y-54874761D01*
X211916190Y-54827142D01*
X212201904Y-54827142D01*
X212297142Y-54874761D01*
X212344761Y-54922380D01*
X212392380Y-55017619D01*
X212392380Y-55208095D01*
X212344761Y-55303333D01*
X212392380Y-53874761D02*
X212392380Y-54446190D01*
X212392380Y-54160476D02*
X211392380Y-54160476D01*
X211535238Y-54255714D01*
X211630476Y-54350952D01*
X211678095Y-54446190D01*
X151474380Y-62221904D02*
X151474380Y-61650476D01*
X152474380Y-61936190D02*
X151474380Y-61936190D01*
X152474380Y-61317142D02*
X151474380Y-61317142D01*
X151474380Y-60936190D01*
X151522000Y-60840952D01*
X151569619Y-60793333D01*
X151664857Y-60745714D01*
X151807714Y-60745714D01*
X151902952Y-60793333D01*
X151950571Y-60840952D01*
X151998190Y-60936190D01*
X151998190Y-61317142D01*
X151569619Y-60364761D02*
X151522000Y-60317142D01*
X151474380Y-60221904D01*
X151474380Y-59983809D01*
X151522000Y-59888571D01*
X151569619Y-59840952D01*
X151664857Y-59793333D01*
X151760095Y-59793333D01*
X151902952Y-59840952D01*
X152474380Y-60412380D01*
X152474380Y-59793333D01*
X152102380Y-67672857D02*
X151626190Y-68006190D01*
X152102380Y-68244285D02*
X151102380Y-68244285D01*
X151102380Y-67863333D01*
X151150000Y-67768095D01*
X151197619Y-67720476D01*
X151292857Y-67672857D01*
X151435714Y-67672857D01*
X151530952Y-67720476D01*
X151578571Y-67768095D01*
X151626190Y-67863333D01*
X151626190Y-68244285D01*
X152102380Y-66720476D02*
X152102380Y-67291904D01*
X152102380Y-67006190D02*
X151102380Y-67006190D01*
X151245238Y-67101428D01*
X151340476Y-67196666D01*
X151388095Y-67291904D01*
X151102380Y-66387142D02*
X151102380Y-65768095D01*
X151483333Y-66101428D01*
X151483333Y-65958571D01*
X151530952Y-65863333D01*
X151578571Y-65815714D01*
X151673809Y-65768095D01*
X151911904Y-65768095D01*
X152007142Y-65815714D01*
X152054761Y-65863333D01*
X152102380Y-65958571D01*
X152102380Y-66244285D01*
X152054761Y-66339523D01*
X152007142Y-66387142D01*
X149152380Y-67672857D02*
X148676190Y-68006190D01*
X149152380Y-68244285D02*
X148152380Y-68244285D01*
X148152380Y-67863333D01*
X148200000Y-67768095D01*
X148247619Y-67720476D01*
X148342857Y-67672857D01*
X148485714Y-67672857D01*
X148580952Y-67720476D01*
X148628571Y-67768095D01*
X148676190Y-67863333D01*
X148676190Y-68244285D01*
X149152380Y-66720476D02*
X149152380Y-67291904D01*
X149152380Y-67006190D02*
X148152380Y-67006190D01*
X148295238Y-67101428D01*
X148390476Y-67196666D01*
X148438095Y-67291904D01*
X148247619Y-66339523D02*
X148200000Y-66291904D01*
X148152380Y-66196666D01*
X148152380Y-65958571D01*
X148200000Y-65863333D01*
X148247619Y-65815714D01*
X148342857Y-65768095D01*
X148438095Y-65768095D01*
X148580952Y-65815714D01*
X149152380Y-66387142D01*
X149152380Y-65768095D01*
X152102380Y-72082857D02*
X151626190Y-72416190D01*
X152102380Y-72654285D02*
X151102380Y-72654285D01*
X151102380Y-72273333D01*
X151150000Y-72178095D01*
X151197619Y-72130476D01*
X151292857Y-72082857D01*
X151435714Y-72082857D01*
X151530952Y-72130476D01*
X151578571Y-72178095D01*
X151626190Y-72273333D01*
X151626190Y-72654285D01*
X152102380Y-71130476D02*
X152102380Y-71701904D01*
X152102380Y-71416190D02*
X151102380Y-71416190D01*
X151245238Y-71511428D01*
X151340476Y-71606666D01*
X151388095Y-71701904D01*
X152102380Y-70178095D02*
X152102380Y-70749523D01*
X152102380Y-70463809D02*
X151102380Y-70463809D01*
X151245238Y-70559047D01*
X151340476Y-70654285D01*
X151388095Y-70749523D01*
X149152380Y-72082857D02*
X148676190Y-72416190D01*
X149152380Y-72654285D02*
X148152380Y-72654285D01*
X148152380Y-72273333D01*
X148200000Y-72178095D01*
X148247619Y-72130476D01*
X148342857Y-72082857D01*
X148485714Y-72082857D01*
X148580952Y-72130476D01*
X148628571Y-72178095D01*
X148676190Y-72273333D01*
X148676190Y-72654285D01*
X149152380Y-71130476D02*
X149152380Y-71701904D01*
X149152380Y-71416190D02*
X148152380Y-71416190D01*
X148295238Y-71511428D01*
X148390476Y-71606666D01*
X148438095Y-71701904D01*
X148152380Y-70511428D02*
X148152380Y-70416190D01*
X148200000Y-70320952D01*
X148247619Y-70273333D01*
X148342857Y-70225714D01*
X148533333Y-70178095D01*
X148771428Y-70178095D01*
X148961904Y-70225714D01*
X149057142Y-70273333D01*
X149104761Y-70320952D01*
X149152380Y-70416190D01*
X149152380Y-70511428D01*
X149104761Y-70606666D01*
X149057142Y-70654285D01*
X148961904Y-70701904D01*
X148771428Y-70749523D01*
X148533333Y-70749523D01*
X148342857Y-70701904D01*
X148247619Y-70654285D01*
X148200000Y-70606666D01*
X148152380Y-70511428D01*
X134932380Y-58973333D02*
X135646666Y-58973333D01*
X135789523Y-59020952D01*
X135884761Y-59116190D01*
X135932380Y-59259047D01*
X135932380Y-59354285D01*
X135932380Y-58449523D02*
X135932380Y-58259047D01*
X135884761Y-58163809D01*
X135837142Y-58116190D01*
X135694285Y-58020952D01*
X135503809Y-57973333D01*
X135122857Y-57973333D01*
X135027619Y-58020952D01*
X134980000Y-58068571D01*
X134932380Y-58163809D01*
X134932380Y-58354285D01*
X134980000Y-58449523D01*
X135027619Y-58497142D01*
X135122857Y-58544761D01*
X135360952Y-58544761D01*
X135456190Y-58497142D01*
X135503809Y-58449523D01*
X135551428Y-58354285D01*
X135551428Y-58163809D01*
X135503809Y-58068571D01*
X135456190Y-58020952D01*
X135360952Y-57973333D01*
X232236666Y-76882380D02*
X232236666Y-77596666D01*
X232189047Y-77739523D01*
X232093809Y-77834761D01*
X231950952Y-77882380D01*
X231855714Y-77882380D01*
X232855714Y-77310952D02*
X232760476Y-77263333D01*
X232712857Y-77215714D01*
X232665238Y-77120476D01*
X232665238Y-77072857D01*
X232712857Y-76977619D01*
X232760476Y-76930000D01*
X232855714Y-76882380D01*
X233046190Y-76882380D01*
X233141428Y-76930000D01*
X233189047Y-76977619D01*
X233236666Y-77072857D01*
X233236666Y-77120476D01*
X233189047Y-77215714D01*
X233141428Y-77263333D01*
X233046190Y-77310952D01*
X232855714Y-77310952D01*
X232760476Y-77358571D01*
X232712857Y-77406190D01*
X232665238Y-77501428D01*
X232665238Y-77691904D01*
X232712857Y-77787142D01*
X232760476Y-77834761D01*
X232855714Y-77882380D01*
X233046190Y-77882380D01*
X233141428Y-77834761D01*
X233189047Y-77787142D01*
X233236666Y-77691904D01*
X233236666Y-77501428D01*
X233189047Y-77406190D01*
X233141428Y-77358571D01*
X233046190Y-77310952D01*
X167773333Y-67232380D02*
X167440000Y-66756190D01*
X167201904Y-67232380D02*
X167201904Y-66232380D01*
X167582857Y-66232380D01*
X167678095Y-66280000D01*
X167725714Y-66327619D01*
X167773333Y-66422857D01*
X167773333Y-66565714D01*
X167725714Y-66660952D01*
X167678095Y-66708571D01*
X167582857Y-66756190D01*
X167201904Y-66756190D01*
X168678095Y-66232380D02*
X168201904Y-66232380D01*
X168154285Y-66708571D01*
X168201904Y-66660952D01*
X168297142Y-66613333D01*
X168535238Y-66613333D01*
X168630476Y-66660952D01*
X168678095Y-66708571D01*
X168725714Y-66803809D01*
X168725714Y-67041904D01*
X168678095Y-67137142D01*
X168630476Y-67184761D01*
X168535238Y-67232380D01*
X168297142Y-67232380D01*
X168201904Y-67184761D01*
X168154285Y-67137142D01*
X167473333Y-61382380D02*
X167140000Y-60906190D01*
X166901904Y-61382380D02*
X166901904Y-60382380D01*
X167282857Y-60382380D01*
X167378095Y-60430000D01*
X167425714Y-60477619D01*
X167473333Y-60572857D01*
X167473333Y-60715714D01*
X167425714Y-60810952D01*
X167378095Y-60858571D01*
X167282857Y-60906190D01*
X166901904Y-60906190D01*
X167854285Y-60477619D02*
X167901904Y-60430000D01*
X167997142Y-60382380D01*
X168235238Y-60382380D01*
X168330476Y-60430000D01*
X168378095Y-60477619D01*
X168425714Y-60572857D01*
X168425714Y-60668095D01*
X168378095Y-60810952D01*
X167806666Y-61382380D01*
X168425714Y-61382380D01*
X220253333Y-78862380D02*
X219920000Y-78386190D01*
X219681904Y-78862380D02*
X219681904Y-77862380D01*
X220062857Y-77862380D01*
X220158095Y-77910000D01*
X220205714Y-77957619D01*
X220253333Y-78052857D01*
X220253333Y-78195714D01*
X220205714Y-78290952D01*
X220158095Y-78338571D01*
X220062857Y-78386190D01*
X219681904Y-78386190D01*
X221205714Y-78862380D02*
X220634285Y-78862380D01*
X220920000Y-78862380D02*
X220920000Y-77862380D01*
X220824761Y-78005238D01*
X220729523Y-78100476D01*
X220634285Y-78148095D01*
X134937380Y-62228333D02*
X135651666Y-62228333D01*
X135794523Y-62275952D01*
X135889761Y-62371190D01*
X135937380Y-62514047D01*
X135937380Y-62609285D01*
X135937380Y-61752142D02*
X134937380Y-61752142D01*
X134937380Y-61371190D01*
X134985000Y-61275952D01*
X135032619Y-61228333D01*
X135127857Y-61180714D01*
X135270714Y-61180714D01*
X135365952Y-61228333D01*
X135413571Y-61275952D01*
X135461190Y-61371190D01*
X135461190Y-61752142D01*
X135270714Y-60323571D02*
X135937380Y-60323571D01*
X134889761Y-60561666D02*
X135604047Y-60799761D01*
X135604047Y-60180714D01*
X135072380Y-76873333D02*
X135786666Y-76873333D01*
X135929523Y-76920952D01*
X136024761Y-77016190D01*
X136072380Y-77159047D01*
X136072380Y-77254285D01*
X136072380Y-76397142D02*
X135072380Y-76397142D01*
X135072380Y-76016190D01*
X135120000Y-75920952D01*
X135167619Y-75873333D01*
X135262857Y-75825714D01*
X135405714Y-75825714D01*
X135500952Y-75873333D01*
X135548571Y-75920952D01*
X135596190Y-76016190D01*
X135596190Y-76397142D01*
X135072380Y-75492380D02*
X135072380Y-74873333D01*
X135453333Y-75206666D01*
X135453333Y-75063809D01*
X135500952Y-74968571D01*
X135548571Y-74920952D01*
X135643809Y-74873333D01*
X135881904Y-74873333D01*
X135977142Y-74920952D01*
X136024761Y-74968571D01*
X136072380Y-75063809D01*
X136072380Y-75349523D01*
X136024761Y-75444761D01*
X135977142Y-75492380D01*
X135072380Y-73473333D02*
X135786666Y-73473333D01*
X135929523Y-73520952D01*
X136024761Y-73616190D01*
X136072380Y-73759047D01*
X136072380Y-73854285D01*
X136072380Y-72997142D02*
X135072380Y-72997142D01*
X135072380Y-72616190D01*
X135120000Y-72520952D01*
X135167619Y-72473333D01*
X135262857Y-72425714D01*
X135405714Y-72425714D01*
X135500952Y-72473333D01*
X135548571Y-72520952D01*
X135596190Y-72616190D01*
X135596190Y-72997142D01*
X135167619Y-72044761D02*
X135120000Y-71997142D01*
X135072380Y-71901904D01*
X135072380Y-71663809D01*
X135120000Y-71568571D01*
X135167619Y-71520952D01*
X135262857Y-71473333D01*
X135358095Y-71473333D01*
X135500952Y-71520952D01*
X136072380Y-72092380D01*
X136072380Y-71473333D01*
X135072380Y-69973333D02*
X135786666Y-69973333D01*
X135929523Y-70020952D01*
X136024761Y-70116190D01*
X136072380Y-70259047D01*
X136072380Y-70354285D01*
X136072380Y-69497142D02*
X135072380Y-69497142D01*
X135072380Y-69116190D01*
X135120000Y-69020952D01*
X135167619Y-68973333D01*
X135262857Y-68925714D01*
X135405714Y-68925714D01*
X135500952Y-68973333D01*
X135548571Y-69020952D01*
X135596190Y-69116190D01*
X135596190Y-69497142D01*
X136072380Y-67973333D02*
X136072380Y-68544761D01*
X136072380Y-68259047D02*
X135072380Y-68259047D01*
X135215238Y-68354285D01*
X135310476Y-68449523D01*
X135358095Y-68544761D01*
X234307142Y-60157142D02*
X234259523Y-60204761D01*
X234116666Y-60252380D01*
X234021428Y-60252380D01*
X233878571Y-60204761D01*
X233783333Y-60109523D01*
X233735714Y-60014285D01*
X233688095Y-59823809D01*
X233688095Y-59680952D01*
X233735714Y-59490476D01*
X233783333Y-59395238D01*
X233878571Y-59300000D01*
X234021428Y-59252380D01*
X234116666Y-59252380D01*
X234259523Y-59300000D01*
X234307142Y-59347619D01*
X235259523Y-60252380D02*
X234688095Y-60252380D01*
X234973809Y-60252380D02*
X234973809Y-59252380D01*
X234878571Y-59395238D01*
X234783333Y-59490476D01*
X234688095Y-59538095D01*
X236116666Y-59585714D02*
X236116666Y-60252380D01*
X235878571Y-59204761D02*
X235640476Y-59919047D01*
X236259523Y-59919047D01*
X234287142Y-66457142D02*
X234239523Y-66504761D01*
X234096666Y-66552380D01*
X234001428Y-66552380D01*
X233858571Y-66504761D01*
X233763333Y-66409523D01*
X233715714Y-66314285D01*
X233668095Y-66123809D01*
X233668095Y-65980952D01*
X233715714Y-65790476D01*
X233763333Y-65695238D01*
X233858571Y-65600000D01*
X234001428Y-65552380D01*
X234096666Y-65552380D01*
X234239523Y-65600000D01*
X234287142Y-65647619D01*
X235239523Y-66552380D02*
X234668095Y-66552380D01*
X234953809Y-66552380D02*
X234953809Y-65552380D01*
X234858571Y-65695238D01*
X234763333Y-65790476D01*
X234668095Y-65838095D01*
X235572857Y-65552380D02*
X236191904Y-65552380D01*
X235858571Y-65933333D01*
X236001428Y-65933333D01*
X236096666Y-65980952D01*
X236144285Y-66028571D01*
X236191904Y-66123809D01*
X236191904Y-66361904D01*
X236144285Y-66457142D01*
X236096666Y-66504761D01*
X236001428Y-66552380D01*
X235715714Y-66552380D01*
X235620476Y-66504761D01*
X235572857Y-66457142D01*
X211232380Y-63833333D02*
X211946666Y-63833333D01*
X212089523Y-63880952D01*
X212184761Y-63976190D01*
X212232380Y-64119047D01*
X212232380Y-64214285D01*
X211565714Y-62928571D02*
X212232380Y-62928571D01*
X211184761Y-63166666D02*
X211899047Y-63404761D01*
X211899047Y-62785714D01*
X75652380Y-70611904D02*
X76461904Y-70611904D01*
X76557142Y-70564285D01*
X76604761Y-70516666D01*
X76652380Y-70421428D01*
X76652380Y-70230952D01*
X76604761Y-70135714D01*
X76557142Y-70088095D01*
X76461904Y-70040476D01*
X75652380Y-70040476D01*
X75652380Y-69659523D02*
X75652380Y-69040476D01*
X76033333Y-69373809D01*
X76033333Y-69230952D01*
X76080952Y-69135714D01*
X76128571Y-69088095D01*
X76223809Y-69040476D01*
X76461904Y-69040476D01*
X76557142Y-69088095D01*
X76604761Y-69135714D01*
X76652380Y-69230952D01*
X76652380Y-69516666D01*
X76604761Y-69611904D01*
X76557142Y-69659523D01*
X126822285Y-65540000D02*
X126736571Y-65492380D01*
X126608000Y-65492380D01*
X126479428Y-65540000D01*
X126393714Y-65635238D01*
X126350857Y-65730476D01*
X126308000Y-65920952D01*
X126308000Y-66063809D01*
X126350857Y-66254285D01*
X126393714Y-66349523D01*
X126479428Y-66444761D01*
X126608000Y-66492380D01*
X126693714Y-66492380D01*
X126822285Y-66444761D01*
X126865142Y-66397142D01*
X126865142Y-66063809D01*
X126693714Y-66063809D01*
X127250857Y-66492380D02*
X127250857Y-65492380D01*
X127765142Y-66492380D01*
X127765142Y-65492380D01*
X128193714Y-66492380D02*
X128193714Y-65492380D01*
X128408000Y-65492380D01*
X128536571Y-65540000D01*
X128622285Y-65635238D01*
X128665142Y-65730476D01*
X128708000Y-65920952D01*
X128708000Y-66063809D01*
X128665142Y-66254285D01*
X128622285Y-66349523D01*
X128536571Y-66444761D01*
X128408000Y-66492380D01*
X128193714Y-66492380D01*
X126234285Y-68984761D02*
X126362857Y-69032380D01*
X126577142Y-69032380D01*
X126662857Y-68984761D01*
X126705714Y-68937142D01*
X126748571Y-68841904D01*
X126748571Y-68746666D01*
X126705714Y-68651428D01*
X126662857Y-68603809D01*
X126577142Y-68556190D01*
X126405714Y-68508571D01*
X126320000Y-68460952D01*
X126277142Y-68413333D01*
X126234285Y-68318095D01*
X126234285Y-68222857D01*
X126277142Y-68127619D01*
X126320000Y-68080000D01*
X126405714Y-68032380D01*
X126620000Y-68032380D01*
X126748571Y-68080000D01*
X127048571Y-68032380D02*
X127262857Y-69032380D01*
X127434285Y-68318095D01*
X127605714Y-69032380D01*
X127820000Y-68032380D01*
X128677142Y-68937142D02*
X128634285Y-68984761D01*
X128505714Y-69032380D01*
X128420000Y-69032380D01*
X128291428Y-68984761D01*
X128205714Y-68889523D01*
X128162857Y-68794285D01*
X128120000Y-68603809D01*
X128120000Y-68460952D01*
X128162857Y-68270476D01*
X128205714Y-68175238D01*
X128291428Y-68080000D01*
X128420000Y-68032380D01*
X128505714Y-68032380D01*
X128634285Y-68080000D01*
X128677142Y-68127619D01*
X129491428Y-69032380D02*
X129062857Y-69032380D01*
X129062857Y-68032380D01*
X129791428Y-69032380D02*
X129791428Y-68032380D01*
X130305714Y-69032380D02*
X129920000Y-68460952D01*
X130305714Y-68032380D02*
X129791428Y-68603809D01*
X126265142Y-71524761D02*
X126393714Y-71572380D01*
X126608000Y-71572380D01*
X126693714Y-71524761D01*
X126736571Y-71477142D01*
X126779428Y-71381904D01*
X126779428Y-71286666D01*
X126736571Y-71191428D01*
X126693714Y-71143809D01*
X126608000Y-71096190D01*
X126436571Y-71048571D01*
X126350857Y-71000952D01*
X126308000Y-70953333D01*
X126265142Y-70858095D01*
X126265142Y-70762857D01*
X126308000Y-70667619D01*
X126350857Y-70620000D01*
X126436571Y-70572380D01*
X126650857Y-70572380D01*
X126779428Y-70620000D01*
X127079428Y-70572380D02*
X127293714Y-71572380D01*
X127465142Y-70858095D01*
X127636571Y-71572380D01*
X127850857Y-70572380D01*
X128365142Y-70572380D02*
X128536571Y-70572380D01*
X128622285Y-70620000D01*
X128708000Y-70715238D01*
X128750857Y-70905714D01*
X128750857Y-71239047D01*
X128708000Y-71429523D01*
X128622285Y-71524761D01*
X128536571Y-71572380D01*
X128365142Y-71572380D01*
X128279428Y-71524761D01*
X128193714Y-71429523D01*
X128150857Y-71239047D01*
X128150857Y-70905714D01*
X128193714Y-70715238D01*
X128279428Y-70620000D01*
X128365142Y-70572380D01*
X126393714Y-73112380D02*
X126950857Y-73112380D01*
X126650857Y-73493333D01*
X126779428Y-73493333D01*
X126865142Y-73540952D01*
X126908000Y-73588571D01*
X126950857Y-73683809D01*
X126950857Y-73921904D01*
X126908000Y-74017142D01*
X126865142Y-74064761D01*
X126779428Y-74112380D01*
X126522285Y-74112380D01*
X126436571Y-74064761D01*
X126393714Y-74017142D01*
X127208000Y-73112380D02*
X127508000Y-74112380D01*
X127808000Y-73112380D01*
X128022285Y-73112380D02*
X128579428Y-73112380D01*
X128279428Y-73493333D01*
X128408000Y-73493333D01*
X128493714Y-73540952D01*
X128536571Y-73588571D01*
X128579428Y-73683809D01*
X128579428Y-73921904D01*
X128536571Y-74017142D01*
X128493714Y-74064761D01*
X128408000Y-74112380D01*
X128150857Y-74112380D01*
X128065142Y-74064761D01*
X128022285Y-74017142D01*
X135087142Y-82057857D02*
X135134761Y-82105476D01*
X135182380Y-82248333D01*
X135182380Y-82343571D01*
X135134761Y-82486428D01*
X135039523Y-82581666D01*
X134944285Y-82629285D01*
X134753809Y-82676904D01*
X134610952Y-82676904D01*
X134420476Y-82629285D01*
X134325238Y-82581666D01*
X134230000Y-82486428D01*
X134182380Y-82343571D01*
X134182380Y-82248333D01*
X134230000Y-82105476D01*
X134277619Y-82057857D01*
X135182380Y-81105476D02*
X135182380Y-81676904D01*
X135182380Y-81391190D02*
X134182380Y-81391190D01*
X134325238Y-81486428D01*
X134420476Y-81581666D01*
X134468095Y-81676904D01*
X134182380Y-80486428D02*
X134182380Y-80391190D01*
X134230000Y-80295952D01*
X134277619Y-80248333D01*
X134372857Y-80200714D01*
X134563333Y-80153095D01*
X134801428Y-80153095D01*
X134991904Y-80200714D01*
X135087142Y-80248333D01*
X135134761Y-80295952D01*
X135182380Y-80391190D01*
X135182380Y-80486428D01*
X135134761Y-80581666D01*
X135087142Y-80629285D01*
X134991904Y-80676904D01*
X134801428Y-80724523D01*
X134563333Y-80724523D01*
X134372857Y-80676904D01*
X134277619Y-80629285D01*
X134230000Y-80581666D01*
X134182380Y-80486428D01*
X137627142Y-82057857D02*
X137674761Y-82105476D01*
X137722380Y-82248333D01*
X137722380Y-82343571D01*
X137674761Y-82486428D01*
X137579523Y-82581666D01*
X137484285Y-82629285D01*
X137293809Y-82676904D01*
X137150952Y-82676904D01*
X136960476Y-82629285D01*
X136865238Y-82581666D01*
X136770000Y-82486428D01*
X136722380Y-82343571D01*
X136722380Y-82248333D01*
X136770000Y-82105476D01*
X136817619Y-82057857D01*
X137722380Y-81105476D02*
X137722380Y-81676904D01*
X137722380Y-81391190D02*
X136722380Y-81391190D01*
X136865238Y-81486428D01*
X136960476Y-81581666D01*
X137008095Y-81676904D01*
X137722380Y-80153095D02*
X137722380Y-80724523D01*
X137722380Y-80438809D02*
X136722380Y-80438809D01*
X136865238Y-80534047D01*
X136960476Y-80629285D01*
X137008095Y-80724523D01*
X140167142Y-81922857D02*
X140214761Y-81970476D01*
X140262380Y-82113333D01*
X140262380Y-82208571D01*
X140214761Y-82351428D01*
X140119523Y-82446666D01*
X140024285Y-82494285D01*
X139833809Y-82541904D01*
X139690952Y-82541904D01*
X139500476Y-82494285D01*
X139405238Y-82446666D01*
X139310000Y-82351428D01*
X139262380Y-82208571D01*
X139262380Y-82113333D01*
X139310000Y-81970476D01*
X139357619Y-81922857D01*
X140262380Y-80970476D02*
X140262380Y-81541904D01*
X140262380Y-81256190D02*
X139262380Y-81256190D01*
X139405238Y-81351428D01*
X139500476Y-81446666D01*
X139548095Y-81541904D01*
X139357619Y-80589523D02*
X139310000Y-80541904D01*
X139262380Y-80446666D01*
X139262380Y-80208571D01*
X139310000Y-80113333D01*
X139357619Y-80065714D01*
X139452857Y-80018095D01*
X139548095Y-80018095D01*
X139690952Y-80065714D01*
X140262380Y-80637142D01*
X140262380Y-80018095D01*
M02*
