%TF.GenerationSoftware,KiCad,Pcbnew,(5.1.10)-1*%
%TF.CreationDate,2021-08-07T13:37:59-04:00*%
%TF.ProjectId,unidapt,6d6f6465-6c6a-42d3-9230-32316d2d6164,rev?*%
%TF.SameCoordinates,Original*%
%TF.FileFunction,Soldermask,Top*%
%TF.FilePolarity,Negative*%
%FSLAX46Y46*%
G04 Gerber Fmt 4.6, Leading zero omitted, Abs format (unit mm)*
G04 Created by KiCad (PCBNEW (5.1.10)-1) date 2021-08-07 13:37:59*
%MOMM*%
%LPD*%
G01*
G04 APERTURE LIST*
%ADD10O,1.700000X1.700000*%
%ADD11R,1.700000X1.700000*%
%ADD12C,1.500000*%
%ADD13C,5.000000*%
%ADD14R,1.500000X6.000000*%
%ADD15C,1.800000*%
%ADD16R,1.800000X1.800000*%
G04 APERTURE END LIST*
D10*
%TO.C,J3*%
X140810000Y-52000000D03*
X143350000Y-52000000D03*
X145890000Y-52000000D03*
X148430000Y-52000000D03*
X150970000Y-52000000D03*
X153510000Y-52000000D03*
X156050000Y-52000000D03*
X158590000Y-52000000D03*
X161130000Y-52000000D03*
X163670000Y-52000000D03*
X166210000Y-52000000D03*
D11*
X168750000Y-52000000D03*
%TD*%
D10*
%TO.C,J2*%
X130650000Y-47750000D03*
X133190000Y-47750000D03*
X135730000Y-47750000D03*
X138270000Y-47750000D03*
X140810000Y-47750000D03*
X143350000Y-47750000D03*
X145890000Y-47750000D03*
X148430000Y-47750000D03*
X150970000Y-47750000D03*
X153510000Y-47750000D03*
X156050000Y-47750000D03*
X158590000Y-47750000D03*
X161130000Y-47750000D03*
X163670000Y-47750000D03*
X166210000Y-47750000D03*
D11*
X168750000Y-47750000D03*
%TD*%
D12*
%TO.C,TP2*%
X105750000Y-62250000D03*
%TD*%
%TO.C,TP1*%
X106000000Y-43250000D03*
%TD*%
%TO.C,R9*%
G36*
G01*
X113680000Y-56669999D02*
X113680000Y-57570001D01*
G75*
G02*
X113430001Y-57820000I-249999J0D01*
G01*
X112904999Y-57820000D01*
G75*
G02*
X112655000Y-57570001I0J249999D01*
G01*
X112655000Y-56669999D01*
G75*
G02*
X112904999Y-56420000I249999J0D01*
G01*
X113430001Y-56420000D01*
G75*
G02*
X113680000Y-56669999I0J-249999D01*
G01*
G37*
G36*
G01*
X115505000Y-56669999D02*
X115505000Y-57570001D01*
G75*
G02*
X115255001Y-57820000I-249999J0D01*
G01*
X114729999Y-57820000D01*
G75*
G02*
X114480000Y-57570001I0J249999D01*
G01*
X114480000Y-56669999D01*
G75*
G02*
X114729999Y-56420000I249999J0D01*
G01*
X115255001Y-56420000D01*
G75*
G02*
X115505000Y-56669999I0J-249999D01*
G01*
G37*
%TD*%
%TO.C,R8*%
G36*
G01*
X118090000Y-56669999D02*
X118090000Y-57570001D01*
G75*
G02*
X117840001Y-57820000I-249999J0D01*
G01*
X117314999Y-57820000D01*
G75*
G02*
X117065000Y-57570001I0J249999D01*
G01*
X117065000Y-56669999D01*
G75*
G02*
X117314999Y-56420000I249999J0D01*
G01*
X117840001Y-56420000D01*
G75*
G02*
X118090000Y-56669999I0J-249999D01*
G01*
G37*
G36*
G01*
X119915000Y-56669999D02*
X119915000Y-57570001D01*
G75*
G02*
X119665001Y-57820000I-249999J0D01*
G01*
X119139999Y-57820000D01*
G75*
G02*
X118890000Y-57570001I0J249999D01*
G01*
X118890000Y-56669999D01*
G75*
G02*
X119139999Y-56420000I249999J0D01*
G01*
X119665001Y-56420000D01*
G75*
G02*
X119915000Y-56669999I0J-249999D01*
G01*
G37*
%TD*%
%TO.C,R7*%
G36*
G01*
X122500000Y-56669999D02*
X122500000Y-57570001D01*
G75*
G02*
X122250001Y-57820000I-249999J0D01*
G01*
X121724999Y-57820000D01*
G75*
G02*
X121475000Y-57570001I0J249999D01*
G01*
X121475000Y-56669999D01*
G75*
G02*
X121724999Y-56420000I249999J0D01*
G01*
X122250001Y-56420000D01*
G75*
G02*
X122500000Y-56669999I0J-249999D01*
G01*
G37*
G36*
G01*
X124325000Y-56669999D02*
X124325000Y-57570001D01*
G75*
G02*
X124075001Y-57820000I-249999J0D01*
G01*
X123549999Y-57820000D01*
G75*
G02*
X123300000Y-57570001I0J249999D01*
G01*
X123300000Y-56669999D01*
G75*
G02*
X123549999Y-56420000I249999J0D01*
G01*
X124075001Y-56420000D01*
G75*
G02*
X124325000Y-56669999I0J-249999D01*
G01*
G37*
%TD*%
D10*
%TO.C,J4*%
X161130000Y-42250000D03*
X163670000Y-42250000D03*
X166210000Y-42250000D03*
D11*
X168750000Y-42250000D03*
%TD*%
D13*
%TO.C,J1*%
X167200000Y-73500000D03*
X106450000Y-73500000D03*
D14*
X111150000Y-73700000D03*
X113289583Y-73700000D03*
X115429166Y-73700000D03*
X117568749Y-73700000D03*
X119708332Y-73700000D03*
X121847915Y-73700000D03*
X123987498Y-73700000D03*
X126127081Y-73700000D03*
X128266664Y-73700000D03*
X130406247Y-73700000D03*
X132545830Y-73700000D03*
X134685413Y-73700000D03*
X136824996Y-73700000D03*
X138964579Y-73700000D03*
X141104162Y-73700000D03*
X143243745Y-73700000D03*
X145383328Y-73700000D03*
X147522911Y-73700000D03*
X149662494Y-73700000D03*
X151802077Y-73700000D03*
X153941660Y-73700000D03*
X156081243Y-73700000D03*
X158220826Y-73700000D03*
X160360409Y-73700000D03*
X162500000Y-73700000D03*
%TD*%
D15*
%TO.C,D3*%
X155540000Y-43250000D03*
D16*
X153000000Y-43250000D03*
%TD*%
D15*
%TO.C,D2*%
X137790000Y-43250000D03*
D16*
X135250000Y-43250000D03*
%TD*%
D15*
%TO.C,D1*%
X119540000Y-43250000D03*
D16*
X117000000Y-43250000D03*
%TD*%
M02*
