(module ModelJ-2021m-pressfit (layer F.Cu) (tedit 610EB325)
  (descr "AT ISA 16 bits Bus Edge Connector")
  (tags "BUS ISA AT Edge connector")
  (attr virtual)
  (fp_text reference REF** (at -49.53 -7.62) (layer F.SilkS)
    (effects (font (size 1 1) (thickness 0.15)))
  )
  (fp_text value BUS_UNICOMP (at -26.67 -7.62) (layer F.Fab)
    (effects (font (size 1 1) (thickness 0.15)))
  )
  (fp_poly (pts (xy 1.46 -2.91) (xy -52.48 -2.91) (xy -52.48 -5.45) (xy 1.46 -5.45)) (layer F.SilkS) (width 0.1))
  (fp_text user %R (at -10.16 -7.62) (layer F.Fab)
    (effects (font (size 1 1) (thickness 0.15)))
  )
  (pad 1 connect rect (at 0 0.2) (size 1.5 6) (layers F.Cu F.Mask))
  (pad 2 connect rect (at -2.139591 0.2) (size 1.5 6) (layers F.Cu F.Mask))
  (pad 3 connect rect (at -4.279174 0.2) (size 1.5 6) (layers F.Cu F.Mask))
  (pad 4 connect rect (at -6.418757 0.2) (size 1.5 6) (layers F.Cu F.Mask))
  (pad 5 connect rect (at -8.55834 0.2) (size 1.5 6) (layers F.Cu F.Mask))
  (pad 6 connect rect (at -10.697923 0.2) (size 1.5 6) (layers F.Cu F.Mask))
  (pad 7 connect rect (at -12.837506 0.2) (size 1.5 6) (layers F.Cu F.Mask))
  (pad 8 connect rect (at -14.977089 0.2) (size 1.5 6) (layers F.Cu F.Mask))
  (pad 9 connect rect (at -17.116672 0.2) (size 1.5 6) (layers F.Cu F.Mask))
  (pad 10 connect rect (at -19.256255 0.2) (size 1.5 6) (layers F.Cu F.Mask))
  (pad 11 connect rect (at -21.395838 0.2) (size 1.5 6) (layers F.Cu F.Mask))
  (pad 12 connect rect (at -23.535421 0.2) (size 1.5 6) (layers F.Cu F.Mask))
  (pad 13 connect rect (at -25.675004 0.2) (size 1.5 6) (layers F.Cu F.Mask))
  (pad 14 connect rect (at -27.814587 0.2) (size 1.5 6) (layers F.Cu F.Mask))
  (pad 15 connect rect (at -29.95417 0.2) (size 1.5 6) (layers F.Cu F.Mask))
  (pad 16 connect rect (at -32.093753 0.2) (size 1.5 6) (layers F.Cu F.Mask))
  (pad 17 connect rect (at -34.233336 0.2) (size 1.5 6) (layers F.Cu F.Mask))
  (pad 18 connect rect (at -36.372919 0.2) (size 1.5 6) (layers F.Cu F.Mask))
  (pad 19 connect rect (at -38.512502 0.2) (size 1.5 6) (layers F.Cu F.Mask))
  (pad 20 connect rect (at -40.652085 0.2) (size 1.5 6) (layers F.Cu F.Mask))
  (pad 21 connect rect (at -42.791668 0.2) (size 1.5 6) (layers F.Cu F.Mask))
  (pad 22 connect rect (at -44.931251 0.2) (size 1.5 6) (layers F.Cu F.Mask))
  (pad 23 connect rect (at -47.070834 0.2) (size 1.5 6) (layers F.Cu F.Mask))
  (pad 24 connect rect (at -49.210417 0.2) (size 1.5 6) (layers F.Cu F.Mask))
  (pad 25 connect rect (at -51.35 0.2) (size 1.5 6) (layers F.Cu F.Mask))
  (pad "" np_thru_hole circle (at -56.05 0) (size 5 5) (drill 4.5) (layers *.Cu *.Mask))
  (pad "" np_thru_hole circle (at 4.7 0) (size 5 5) (drill 4.5) (layers *.Cu *.Mask))
)
